('C:\\Users\\kalkan\\Desktop\\exe\\build\\kod\\out00-PKG.pkg',
 {'BINARY': 1,
  'DATA': 1,
  'EXECUTABLE': 1,
  'EXTENSION': 1,
  'PYMODULE': 1,
  'PYSOURCE': 1,
  'PYZ': 0},
 [('out00-PYZ.pyz',
   'C:\\Users\\kalkan\\Desktop\\exe\\build\\kod\\out00-PYZ.pyz',
   'PYZ'),
  ('struct',
   'c:\\users\\kalkan\\appdata\\local\\programs\\python\\python35\\lib\\struct.pyo',
   'PYMODULE'),
  ('pyimod01_os_path',
   'c:\\users\\kalkan\\appdata\\local\\programs\\python\\python35\\lib\\site-packages\\PyInstaller\\loader\\pyimod01_os_path.pyc',
   'PYMODULE'),
  ('pyimod02_archive',
   'c:\\users\\kalkan\\appdata\\local\\programs\\python\\python35\\lib\\site-packages\\PyInstaller\\loader\\pyimod02_archive.pyc',
   'PYMODULE'),
  ('pyimod03_importers',
   'c:\\users\\kalkan\\appdata\\local\\programs\\python\\python35\\lib\\site-packages\\PyInstaller\\loader\\pyimod03_importers.pyc',
   'PYMODULE'),
  ('pyiboot01_bootstrap',
   'c:\\users\\kalkan\\appdata\\local\\programs\\python\\python35\\lib\\site-packages\\PyInstaller\\loader\\pyiboot01_bootstrap.py',
   'PYSOURCE'),
  ('pyi_rth_multiprocessing',
   'c:\\users\\kalkan\\appdata\\local\\programs\\python\\python35\\lib\\site-packages\\PyInstaller\\loader\\rthooks\\pyi_rth_multiprocessing.py',
   'PYSOURCE'),
  ('pyi_rth_pkgres',
   'c:\\users\\kalkan\\appdata\\local\\programs\\python\\python35\\lib\\site-packages\\PyInstaller\\loader\\rthooks\\pyi_rth_pkgres.py',
   'PYSOURCE'),
  ('pyi_rth_win32comgenpy',
   'c:\\users\\kalkan\\appdata\\local\\programs\\python\\python35\\lib\\site-packages\\PyInstaller\\loader\\rthooks\\pyi_rth_win32comgenpy.py',
   'PYSOURCE'),
  ('kod', 'C:\\Users\\kalkan\\Desktop\\exe\\kod.py', 'PYSOURCE'),
  ('python35.dll',
   'c:\\users\\kalkan\\appdata\\local\\programs\\python\\python35\\python35.dll',
   'BINARY'),
  ('api-ms-win-crt-stdio-l1-1-0.dll',
   'C:\\ProgramData\\Anaconda3\\api-ms-win-crt-stdio-l1-1-0.dll',
   'BINARY'),
  ('api-ms-win-crt-locale-l1-1-0.dll',
   'C:\\ProgramData\\Anaconda3\\api-ms-win-crt-locale-l1-1-0.dll',
   'BINARY'),
  ('api-ms-win-crt-math-l1-1-0.dll',
   'C:\\ProgramData\\Anaconda3\\api-ms-win-crt-math-l1-1-0.dll',
   'BINARY'),
  ('VCRUNTIME140.dll',
   'c:\\users\\kalkan\\appdata\\local\\programs\\python\\python35\\VCRUNTIME140.dll',
   'BINARY'),
  ('api-ms-win-crt-heap-l1-1-0.dll',
   'C:\\ProgramData\\Anaconda3\\api-ms-win-crt-heap-l1-1-0.dll',
   'BINARY'),
  ('api-ms-win-crt-runtime-l1-1-0.dll',
   'C:\\ProgramData\\Anaconda3\\api-ms-win-crt-runtime-l1-1-0.dll',
   'BINARY'),
  ('api-ms-win-crt-filesystem-l1-1-0.dll',
   'C:\\ProgramData\\Anaconda3\\api-ms-win-crt-filesystem-l1-1-0.dll',
   'BINARY'),
  ('api-ms-win-crt-process-l1-1-0.dll',
   'C:\\ProgramData\\Anaconda3\\api-ms-win-crt-process-l1-1-0.dll',
   'BINARY'),
  ('api-ms-win-crt-environment-l1-1-0.dll',
   'C:\\ProgramData\\Anaconda3\\api-ms-win-crt-environment-l1-1-0.dll',
   'BINARY'),
  ('api-ms-win-crt-conio-l1-1-0.dll',
   'C:\\ProgramData\\Anaconda3\\api-ms-win-crt-conio-l1-1-0.dll',
   'BINARY'),
  ('api-ms-win-crt-convert-l1-1-0.dll',
   'C:\\ProgramData\\Anaconda3\\api-ms-win-crt-convert-l1-1-0.dll',
   'BINARY'),
  ('api-ms-win-crt-time-l1-1-0.dll',
   'C:\\ProgramData\\Anaconda3\\api-ms-win-crt-time-l1-1-0.dll',
   'BINARY'),
  ('api-ms-win-crt-string-l1-1-0.dll',
   'C:\\ProgramData\\Anaconda3\\api-ms-win-crt-string-l1-1-0.dll',
   'BINARY'),
  ('ucrtbase.dll', 'C:\\ProgramData\\Anaconda3\\ucrtbase.dll', 'BINARY'),
  ('api-ms-win-core-file-l1-2-0.dll',
   'C:\\ProgramData\\Anaconda3\\api-ms-win-core-file-l1-2-0.dll',
   'BINARY'),
  ('api-ms-win-core-file-l1-1-0.dll',
   'C:\\ProgramData\\Anaconda3\\api-ms-win-core-file-l1-1-0.dll',
   'BINARY'),
  ('api-ms-win-core-memory-l1-1-0.dll',
   'C:\\ProgramData\\Anaconda3\\api-ms-win-core-memory-l1-1-0.dll',
   'BINARY'),
  ('api-ms-win-core-util-l1-1-0.dll',
   'C:\\ProgramData\\Anaconda3\\api-ms-win-core-util-l1-1-0.dll',
   'BINARY'),
  ('api-ms-win-core-heap-l1-1-0.dll',
   'C:\\ProgramData\\Anaconda3\\api-ms-win-core-heap-l1-1-0.dll',
   'BINARY'),
  ('api-ms-win-core-string-l1-1-0.dll',
   'C:\\ProgramData\\Anaconda3\\api-ms-win-core-string-l1-1-0.dll',
   'BINARY'),
  ('api-ms-win-core-synch-l1-1-0.dll',
   'C:\\ProgramData\\Anaconda3\\api-ms-win-core-synch-l1-1-0.dll',
   'BINARY'),
  ('api-ms-win-core-sysinfo-l1-1-0.dll',
   'C:\\ProgramData\\Anaconda3\\api-ms-win-core-sysinfo-l1-1-0.dll',
   'BINARY'),
  ('api-ms-win-core-debug-l1-1-0.dll',
   'C:\\ProgramData\\Anaconda3\\api-ms-win-core-debug-l1-1-0.dll',
   'BINARY'),
  ('api-ms-win-core-file-l2-1-0.dll',
   'C:\\ProgramData\\Anaconda3\\api-ms-win-core-file-l2-1-0.dll',
   'BINARY'),
  ('api-ms-win-core-console-l1-1-0.dll',
   'C:\\ProgramData\\Anaconda3\\api-ms-win-core-console-l1-1-0.dll',
   'BINARY'),
  ('api-ms-win-core-rtlsupport-l1-1-0.dll',
   'C:\\ProgramData\\Anaconda3\\api-ms-win-core-rtlsupport-l1-1-0.dll',
   'BINARY'),
  ('api-ms-win-core-processthreads-l1-1-0.dll',
   'C:\\ProgramData\\Anaconda3\\api-ms-win-core-processthreads-l1-1-0.dll',
   'BINARY'),
  ('api-ms-win-core-libraryloader-l1-1-0.dll',
   'C:\\ProgramData\\Anaconda3\\api-ms-win-core-libraryloader-l1-1-0.dll',
   'BINARY'),
  ('api-ms-win-core-localization-l1-2-0.dll',
   'C:\\ProgramData\\Anaconda3\\api-ms-win-core-localization-l1-2-0.dll',
   'BINARY'),
  ('api-ms-win-core-namedpipe-l1-1-0.dll',
   'C:\\ProgramData\\Anaconda3\\api-ms-win-core-namedpipe-l1-1-0.dll',
   'BINARY'),
  ('api-ms-win-core-processenvironment-l1-1-0.dll',
   'C:\\ProgramData\\Anaconda3\\api-ms-win-core-processenvironment-l1-1-0.dll',
   'BINARY'),
  ('api-ms-win-core-datetime-l1-1-0.dll',
   'C:\\ProgramData\\Anaconda3\\api-ms-win-core-datetime-l1-1-0.dll',
   'BINARY'),
  ('api-ms-win-core-processthreads-l1-1-1.dll',
   'C:\\ProgramData\\Anaconda3\\api-ms-win-core-processthreads-l1-1-1.dll',
   'BINARY'),
  ('api-ms-win-core-profile-l1-1-0.dll',
   'C:\\ProgramData\\Anaconda3\\api-ms-win-core-profile-l1-1-0.dll',
   'BINARY'),
  ('api-ms-win-core-synch-l1-2-0.dll',
   'C:\\ProgramData\\Anaconda3\\api-ms-win-core-synch-l1-2-0.dll',
   'BINARY'),
  ('api-ms-win-core-interlocked-l1-1-0.dll',
   'C:\\ProgramData\\Anaconda3\\api-ms-win-core-interlocked-l1-1-0.dll',
   'BINARY'),
  ('api-ms-win-core-errorhandling-l1-1-0.dll',
   'C:\\ProgramData\\Anaconda3\\api-ms-win-core-errorhandling-l1-1-0.dll',
   'BINARY'),
  ('api-ms-win-core-timezone-l1-1-0.dll',
   'C:\\ProgramData\\Anaconda3\\api-ms-win-core-timezone-l1-1-0.dll',
   'BINARY'),
  ('api-ms-win-core-handle-l1-1-0.dll',
   'C:\\ProgramData\\Anaconda3\\api-ms-win-core-handle-l1-1-0.dll',
   'BINARY'),
  ('pywintypes35.dll',
   'c:\\users\\kalkan\\appdata\\local\\programs\\python\\python35\\lib\\site-packages\\pypiwin32_system32\\pywintypes35.dll',
   'BINARY'),
  ('pythoncom35.dll',
   'c:\\users\\kalkan\\appdata\\local\\programs\\python\\python35\\lib\\site-packages\\pypiwin32_system32\\pythoncom35.dll',
   'BINARY'),
  ('win32trace',
   'c:\\users\\kalkan\\appdata\\local\\programs\\python\\python35\\lib\\site-packages\\win32\\win32trace.pyd',
   'EXTENSION'),
  ('win32ui',
   'c:\\users\\kalkan\\appdata\\local\\programs\\python\\python35\\lib\\site-packages\\Pythonwin\\win32ui.pyd',
   'EXTENSION'),
  ('_win32sysloader',
   'c:\\users\\kalkan\\appdata\\local\\programs\\python\\python35\\lib\\site-packages\\win32\\_win32sysloader.pyd',
   'EXTENSION'),
  ('win32api',
   'c:\\users\\kalkan\\appdata\\local\\programs\\python\\python35\\lib\\site-packages\\win32\\win32api.pyd',
   'EXTENSION'),
  ('win32wnet',
   'c:\\users\\kalkan\\appdata\\local\\programs\\python\\python35\\lib\\site-packages\\win32\\win32wnet.pyd',
   'EXTENSION'),
  ('win32com.shell.shell',
   'c:\\users\\kalkan\\appdata\\local\\programs\\python\\python35\\lib\\site-packages\\win32comext\\shell\\shell.pyd',
   'EXTENSION'),
  ('_multiprocessing',
   'c:\\users\\kalkan\\appdata\\local\\programs\\python\\python35\\DLLs\\_multiprocessing.pyd',
   'EXTENSION'),
  ('_ssl',
   'c:\\users\\kalkan\\appdata\\local\\programs\\python\\python35\\DLLs\\_ssl.pyd',
   'EXTENSION'),
  ('unicodedata',
   'c:\\users\\kalkan\\appdata\\local\\programs\\python\\python35\\DLLs\\unicodedata.pyd',
   'EXTENSION'),
  ('_ctypes',
   'c:\\users\\kalkan\\appdata\\local\\programs\\python\\python35\\DLLs\\_ctypes.pyd',
   'EXTENSION'),
  ('pyexpat',
   'c:\\users\\kalkan\\appdata\\local\\programs\\python\\python35\\DLLs\\pyexpat.pyd',
   'EXTENSION'),
  ('_hashlib',
   'c:\\users\\kalkan\\appdata\\local\\programs\\python\\python35\\DLLs\\_hashlib.pyd',
   'EXTENSION'),
  ('_bz2',
   'c:\\users\\kalkan\\appdata\\local\\programs\\python\\python35\\DLLs\\_bz2.pyd',
   'EXTENSION'),
  ('_lzma',
   'c:\\users\\kalkan\\appdata\\local\\programs\\python\\python35\\DLLs\\_lzma.pyd',
   'EXTENSION'),
  ('_socket',
   'c:\\users\\kalkan\\appdata\\local\\programs\\python\\python35\\DLLs\\_socket.pyd',
   'EXTENSION'),
  ('select',
   'c:\\users\\kalkan\\appdata\\local\\programs\\python\\python35\\DLLs\\select.pyd',
   'EXTENSION'),
  ('cv2.cv2',
   'c:\\users\\kalkan\\appdata\\local\\programs\\python\\python35\\lib\\site-packages\\cv2\\cv2.cp35-win_amd64.pyd',
   'EXTENSION'),
  ('scipy._lib._ccallback_c',
   'c:\\users\\kalkan\\appdata\\local\\programs\\python\\python35\\lib\\site-packages\\scipy\\_lib\\_ccallback_c.cp35-win_amd64.pyd',
   'EXTENSION'),
  ('_cffi_backend',
   'c:\\users\\kalkan\\appdata\\local\\programs\\python\\python35\\lib\\site-packages\\_cffi_backend.cp35-win_amd64.pyd',
   'EXTENSION'),
  ('numpy.core.umath',
   'c:\\users\\kalkan\\appdata\\local\\programs\\python\\python35\\lib\\site-packages\\numpy\\core\\umath.cp35-win_amd64.pyd',
   'EXTENSION'),
  ('numpy.core.multiarray',
   'c:\\users\\kalkan\\appdata\\local\\programs\\python\\python35\\lib\\site-packages\\numpy\\core\\multiarray.cp35-win_amd64.pyd',
   'EXTENSION'),
  ('win32pdh',
   'c:\\users\\kalkan\\appdata\\local\\programs\\python\\python35\\lib\\site-packages\\win32\\win32pdh.pyd',
   'EXTENSION'),
  ('numpy.random.mtrand',
   'c:\\users\\kalkan\\appdata\\local\\programs\\python\\python35\\lib\\site-packages\\numpy\\random\\mtrand.cp35-win_amd64.pyd',
   'EXTENSION'),
  ('numpy.fft.fftpack_lite',
   'c:\\users\\kalkan\\appdata\\local\\programs\\python\\python35\\lib\\site-packages\\numpy\\fft\\fftpack_lite.cp35-win_amd64.pyd',
   'EXTENSION'),
  ('numpy.linalg.lapack_lite',
   'c:\\users\\kalkan\\appdata\\local\\programs\\python\\python35\\lib\\site-packages\\numpy\\linalg\\lapack_lite.cp35-win_amd64.pyd',
   'EXTENSION'),
  ('numpy.linalg._umath_linalg',
   'c:\\users\\kalkan\\appdata\\local\\programs\\python\\python35\\lib\\site-packages\\numpy\\linalg\\_umath_linalg.cp35-win_amd64.pyd',
   'EXTENSION'),
  ('MSVCR100.dll', 'C:\\WINDOWS\\system32\\msvcr100.dll', 'BINARY'),
  ('mfc100u.dll',
   'c:\\users\\kalkan\\appdata\\local\\programs\\python\\python35\\lib\\site-packages\\Pythonwin\\mfc100u.dll',
   'BINARY'),
  ('api-ms-win-crt-utility-l1-1-0.dll',
   'C:\\ProgramData\\Anaconda3\\api-ms-win-crt-utility-l1-1-0.dll',
   'BINARY'),
  ('python3.dll',
   'c:\\users\\kalkan\\appdata\\local\\programs\\python\\python35\\python3.dll',
   'BINARY'),
  ('libopenblas_v0.2.20_mingwpy.dll',
   'c:\\users\\kalkan\\appdata\\local\\programs\\python\\python35\\lib\\site-packages\\numpy\\core\\libopenblas_v0.2.20_mingwpy.dll',
   'BINARY'),
  ('base_library.zip',
   'C:\\Users\\kalkan\\Desktop\\exe\\build\\kod\\base_library.zip',
   'DATA'),
  ('lib2to3\\PatternGrammar3.5.2.final.0.pickle',
   'c:\\users\\kalkan\\appdata\\local\\programs\\python\\python35\\lib\\lib2to3\\PatternGrammar3.5.2.final.0.pickle',
   'DATA'),
  ('lib2to3\\tests\\data\\README',
   'c:\\users\\kalkan\\appdata\\local\\programs\\python\\python35\\lib\\lib2to3\\tests\\data\\README',
   'DATA'),
  ('Include\\pyconfig.h',
   'c:\\users\\kalkan\\appdata\\local\\programs\\python\\python35\\Include\\pyconfig.h',
   'DATA'),
  ('lib2to3\\PatternGrammar.txt',
   'c:\\users\\kalkan\\appdata\\local\\programs\\python\\python35\\lib\\lib2to3\\PatternGrammar.txt',
   'DATA'),
  ('lib2to3\\Grammar3.5.2.final.0.pickle',
   'c:\\users\\kalkan\\appdata\\local\\programs\\python\\python35\\lib\\lib2to3\\Grammar3.5.2.final.0.pickle',
   'DATA'),
  ('lib2to3\\Grammar.txt',
   'c:\\users\\kalkan\\appdata\\local\\programs\\python\\python35\\lib\\lib2to3\\Grammar.txt',
   'DATA'),
  ('kod.exe.manifest',
   'C:\\Users\\kalkan\\Desktop\\exe\\build\\kod\\kod.exe.manifest',
   'BINARY'),
  ('pyi-windows-manifest-filename kod.exe.manifest', '', 'OPTION')],
 False,
 False,
 False)
