(['C:\\Users\\kalkan\\Desktop\\exe\\kod.py'],
 ['C:\\Users\\kalkan\\Desktop\\exe', 'C:\\Users\\kalkan\\Desktop\\exe'],
 ['codecs'],
 [],
 [],
 [],
 False,
 False,
 '3.5.2 (v3.5.2:4def2a2901a5, Jun 25 2016, 22:18:55) [MSC v.1900 64 bit '
 '(AMD64)]',
 [('pyi_rth_multiprocessing',
   'c:\\users\\kalkan\\appdata\\local\\programs\\python\\python35\\lib\\site-packages\\PyInstaller\\loader\\rthooks\\pyi_rth_multiprocessing.py',
   'PYSOURCE'),
  ('pyi_rth_pkgres',
   'c:\\users\\kalkan\\appdata\\local\\programs\\python\\python35\\lib\\site-packages\\PyInstaller\\loader\\rthooks\\pyi_rth_pkgres.py',
   'PYSOURCE'),
  ('pyi_rth_win32comgenpy',
   'c:\\users\\kalkan\\appdata\\local\\programs\\python\\python35\\lib\\site-packages\\PyInstaller\\loader\\rthooks\\pyi_rth_win32comgenpy.py',
   'PYSOURCE'),
  ('kod', 'C:\\Users\\kalkan\\Desktop\\exe\\kod.py', 'PYSOURCE')],
 [('win32com',
   'c:\\users\\kalkan\\appdata\\local\\programs\\python\\python35\\lib\\site-packages\\win32com\\__init__.py',
   'PYMODULE'),
  ('win32com.server.util',
   'c:\\users\\kalkan\\appdata\\local\\programs\\python\\python35\\lib\\site-packages\\win32com\\server\\util.py',
   'PYMODULE'),
  ('win32com.server.dispatcher',
   'c:\\users\\kalkan\\appdata\\local\\programs\\python\\python35\\lib\\site-packages\\win32com\\server\\dispatcher.py',
   'PYMODULE'),
  ('win32traceutil',
   'c:\\users\\kalkan\\appdata\\local\\programs\\python\\python35\\lib\\site-packages\\win32\\lib\\win32traceutil.py',
   'PYMODULE'),
  ('win32com.util',
   'c:\\users\\kalkan\\appdata\\local\\programs\\python\\python35\\lib\\site-packages\\win32com\\util.py',
   'PYMODULE'),
  ('win32con',
   'c:\\users\\kalkan\\appdata\\local\\programs\\python\\python35\\lib\\site-packages\\win32\\lib\\win32con.py',
   'PYMODULE'),
  ('win32com.server.exception',
   'c:\\users\\kalkan\\appdata\\local\\programs\\python\\python35\\lib\\site-packages\\win32com\\server\\exception.py',
   'PYMODULE'),
  ('winerror',
   'c:\\users\\kalkan\\appdata\\local\\programs\\python\\python35\\lib\\site-packages\\win32\\lib\\winerror.py',
   'PYMODULE'),
  ('win32com.server.policy',
   'c:\\users\\kalkan\\appdata\\local\\programs\\python\\python35\\lib\\site-packages\\win32com\\server\\policy.py',
   'PYMODULE'),
  ('win32com.client',
   'c:\\users\\kalkan\\appdata\\local\\programs\\python\\python35\\lib\\site-packages\\win32com\\client\\__init__.py',
   'PYMODULE'),
  ('win32com.client.makepy',
   'c:\\users\\kalkan\\appdata\\local\\programs\\python\\python35\\lib\\site-packages\\win32com\\client\\makepy.py',
   'PYMODULE'),
  ('pywin.dialogs.status',
   'c:\\users\\kalkan\\appdata\\local\\programs\\python\\python35\\lib\\site-packages\\Pythonwin\\pywin\\dialogs\\status.py',
   'PYMODULE'),
  ('pywin.mfc.thread',
   'c:\\users\\kalkan\\appdata\\local\\programs\\python\\python35\\lib\\site-packages\\Pythonwin\\pywin\\mfc\\thread.py',
   'PYMODULE'),
  ('pywin.mfc.object',
   'c:\\users\\kalkan\\appdata\\local\\programs\\python\\python35\\lib\\site-packages\\Pythonwin\\pywin\\mfc\\object.py',
   'PYMODULE'),
  ('pywin.mfc.dialog',
   'c:\\users\\kalkan\\appdata\\local\\programs\\python\\python35\\lib\\site-packages\\Pythonwin\\pywin\\mfc\\dialog.py',
   'PYMODULE'),
  ('pywin.mfc.window',
   'c:\\users\\kalkan\\appdata\\local\\programs\\python\\python35\\lib\\site-packages\\Pythonwin\\pywin\\mfc\\window.py',
   'PYMODULE'),
  ('pywin.mfc',
   'c:\\users\\kalkan\\appdata\\local\\programs\\python\\python35\\lib\\site-packages\\Pythonwin\\pywin\\mfc\\__init__.py',
   'PYMODULE'),
  ('pywin.dialogs',
   'c:\\users\\kalkan\\appdata\\local\\programs\\python\\python35\\lib\\site-packages\\Pythonwin\\pywin\\dialogs\\__init__.py',
   'PYMODULE'),
  ('pywin',
   'c:\\users\\kalkan\\appdata\\local\\programs\\python\\python35\\lib\\site-packages\\Pythonwin\\pywin\\__init__.py',
   'PYMODULE'),
  ('win32com.client.gencache',
   'c:\\users\\kalkan\\appdata\\local\\programs\\python\\python35\\lib\\site-packages\\win32com\\client\\gencache.py',
   'PYMODULE'),
  ('win32com.client.selecttlb',
   'c:\\users\\kalkan\\appdata\\local\\programs\\python\\python35\\lib\\site-packages\\win32com\\client\\selecttlb.py',
   'PYMODULE'),
  ('pywin.dialogs.list',
   'c:\\users\\kalkan\\appdata\\local\\programs\\python\\python35\\lib\\site-packages\\Pythonwin\\pywin\\dialogs\\list.py',
   'PYMODULE'),
  ('commctrl',
   'c:\\users\\kalkan\\appdata\\local\\programs\\python\\python35\\lib\\site-packages\\win32\\lib\\commctrl.py',
   'PYMODULE'),
  ('win32com.client.genpy',
   'c:\\users\\kalkan\\appdata\\local\\programs\\python\\python35\\lib\\site-packages\\win32com\\client\\genpy.py',
   'PYMODULE'),
  ('win32com.client.CLSIDToClass',
   'c:\\users\\kalkan\\appdata\\local\\programs\\python\\python35\\lib\\site-packages\\win32com\\client\\CLSIDToClass.py',
   'PYMODULE'),
  ('win32com.client.dynamic',
   'c:\\users\\kalkan\\appdata\\local\\programs\\python\\python35\\lib\\site-packages\\win32com\\client\\dynamic.py',
   'PYMODULE'),
  ('win32com.client.build',
   'c:\\users\\kalkan\\appdata\\local\\programs\\python\\python35\\lib\\site-packages\\win32com\\client\\build.py',
   'PYMODULE'),
  ('pywintypes',
   'c:\\users\\kalkan\\appdata\\local\\programs\\python\\python35\\lib\\site-packages\\win32\\lib\\pywintypes.py',
   'PYMODULE'),
  ('win32com.server',
   'c:\\users\\kalkan\\appdata\\local\\programs\\python\\python35\\lib\\site-packages\\win32com\\server\\__init__.py',
   'PYMODULE'),
  ('win32com.universal',
   'c:\\users\\kalkan\\appdata\\local\\programs\\python\\python35\\lib\\site-packages\\win32com\\universal.py',
   'PYMODULE'),
  ('win32com.client.util',
   'c:\\users\\kalkan\\appdata\\local\\programs\\python\\python35\\lib\\site-packages\\win32com\\client\\util.py',
   'PYMODULE'),
  ('pythoncom',
   'c:\\users\\kalkan\\appdata\\local\\programs\\python\\python35\\lib\\site-packages\\pythoncom.py',
   'PYMODULE'),
  ('pkg_resources',
   'c:\\users\\kalkan\\appdata\\local\\programs\\python\\python35\\lib\\site-packages\\pkg_resources\\__init__.py',
   'PYMODULE'),
  ('pkg_resources._vendor.pyparsing',
   'c:\\users\\kalkan\\appdata\\local\\programs\\python\\python35\\lib\\site-packages\\pkg_resources\\_vendor\\pyparsing.py',
   'PYMODULE'),
  ('uuid',
   'c:\\users\\kalkan\\appdata\\local\\programs\\python\\python35\\lib\\uuid.py',
   'PYMODULE'),
  ('ctypes.util',
   'c:\\users\\kalkan\\appdata\\local\\programs\\python\\python35\\lib\\ctypes\\util.py',
   'PYMODULE'),
  ('ctypes.macholib.dyld',
   'c:\\users\\kalkan\\appdata\\local\\programs\\python\\python35\\lib\\ctypes\\macholib\\dyld.py',
   'PYMODULE'),
  ('ctypes.macholib',
   'c:\\users\\kalkan\\appdata\\local\\programs\\python\\python35\\lib\\ctypes\\macholib\\__init__.py',
   'PYMODULE'),
  ('ctypes.macholib.dylib',
   'c:\\users\\kalkan\\appdata\\local\\programs\\python\\python35\\lib\\ctypes\\macholib\\dylib.py',
   'PYMODULE'),
  ('ctypes.macholib.framework',
   'c:\\users\\kalkan\\appdata\\local\\programs\\python\\python35\\lib\\ctypes\\macholib\\framework.py',
   'PYMODULE'),
  ('netbios',
   'c:\\users\\kalkan\\appdata\\local\\programs\\python\\python35\\lib\\site-packages\\win32\\lib\\netbios.py',
   'PYMODULE'),
  ('pkg_resources._vendor.packaging.utils',
   'c:\\users\\kalkan\\appdata\\local\\programs\\python\\python35\\lib\\site-packages\\pkg_resources\\_vendor\\packaging\\utils.py',
   'PYMODULE'),
  ('pkg_resources._vendor.packaging.requirements',
   'c:\\users\\kalkan\\appdata\\local\\programs\\python\\python35\\lib\\site-packages\\pkg_resources\\_vendor\\packaging\\requirements.py',
   'PYMODULE'),
  ('pkg_resources._vendor.packaging',
   'c:\\users\\kalkan\\appdata\\local\\programs\\python\\python35\\lib\\site-packages\\pkg_resources\\_vendor\\packaging\\__init__.py',
   'PYMODULE'),
  ('pkg_resources._vendor',
   'c:\\users\\kalkan\\appdata\\local\\programs\\python\\python35\\lib\\site-packages\\pkg_resources\\_vendor\\__init__.py',
   'PYMODULE'),
  ('pkg_resources._vendor.six',
   'c:\\users\\kalkan\\appdata\\local\\programs\\python\\python35\\lib\\site-packages\\pkg_resources\\_vendor\\six.py',
   'PYMODULE'),
  ('pkg_resources._vendor.packaging.specifiers',
   'c:\\users\\kalkan\\appdata\\local\\programs\\python\\python35\\lib\\site-packages\\pkg_resources\\_vendor\\packaging\\specifiers.py',
   'PYMODULE'),
  ('pkg_resources._vendor.packaging._compat',
   'c:\\users\\kalkan\\appdata\\local\\programs\\python\\python35\\lib\\site-packages\\pkg_resources\\_vendor\\packaging\\_compat.py',
   'PYMODULE'),
  ('pkg_resources._vendor.packaging.markers',
   'c:\\users\\kalkan\\appdata\\local\\programs\\python\\python35\\lib\\site-packages\\pkg_resources\\_vendor\\packaging\\markers.py',
   'PYMODULE'),
  ('pkg_resources._vendor.appdirs',
   'c:\\users\\kalkan\\appdata\\local\\programs\\python\\python35\\lib\\site-packages\\pkg_resources\\_vendor\\appdirs.py',
   'PYMODULE'),
  ('win32com.shell.shellcon',
   'c:\\users\\kalkan\\appdata\\local\\programs\\python\\python35\\lib\\site-packages\\win32comext\\shell\\shellcon.py',
   'PYMODULE'),
  ('win32com.shell',
   'c:\\users\\kalkan\\appdata\\local\\programs\\python\\python35\\lib\\site-packages\\win32comext\\shell\\__init__.py',
   'PYMODULE'),
  ('pkg_resources._vendor.packaging.version',
   'c:\\users\\kalkan\\appdata\\local\\programs\\python\\python35\\lib\\site-packages\\pkg_resources\\_vendor\\packaging\\version.py',
   'PYMODULE'),
  ('pkg_resources._vendor.packaging._structures',
   'c:\\users\\kalkan\\appdata\\local\\programs\\python\\python35\\lib\\site-packages\\pkg_resources\\_vendor\\packaging\\_structures.py',
   'PYMODULE'),
  ('pkg_resources._vendor.packaging.__about__',
   'c:\\users\\kalkan\\appdata\\local\\programs\\python\\python35\\lib\\site-packages\\pkg_resources\\_vendor\\packaging\\__about__.py',
   'PYMODULE'),
  ('__main__',
   'C:\\Users\\kalkan\\AppData\\Local\\Programs\\Python\\Python35\\Scripts\\pyinstaller.exe\\__main__.py',
   'PYMODULE'),
  ('PyInstaller.__main__',
   'c:\\users\\kalkan\\appdata\\local\\programs\\python\\python35\\lib\\site-packages\\PyInstaller\\__main__.py',
   'PYMODULE'),
  ('PyInstaller.building.build_main',
   'c:\\users\\kalkan\\appdata\\local\\programs\\python\\python35\\lib\\site-packages\\PyInstaller\\building\\build_main.py',
   'PYMODULE'),
  ('PyInstaller.building',
   'c:\\users\\kalkan\\appdata\\local\\programs\\python\\python35\\lib\\site-packages\\PyInstaller\\building\\__init__.py',
   'PYMODULE'),
  ('PyInstaller.config',
   'c:\\users\\kalkan\\appdata\\local\\programs\\python\\python35\\lib\\site-packages\\PyInstaller\\config.py',
   'PYMODULE'),
  ('PyInstaller.utils.win32.winmanifest',
   'c:\\users\\kalkan\\appdata\\local\\programs\\python\\python35\\lib\\site-packages\\PyInstaller\\utils\\win32\\winmanifest.py',
   'PYMODULE'),
  ('PyInstaller.utils.win32.winresource',
   'c:\\users\\kalkan\\appdata\\local\\programs\\python\\python35\\lib\\site-packages\\PyInstaller\\utils\\win32\\winresource.py',
   'PYMODULE'),
  ('xml.dom.minidom',
   'c:\\users\\kalkan\\appdata\\local\\programs\\python\\python35\\lib\\xml\\dom\\minidom.py',
   'PYMODULE'),
  ('xml.dom.pulldom',
   'c:\\users\\kalkan\\appdata\\local\\programs\\python\\python35\\lib\\xml\\dom\\pulldom.py',
   'PYMODULE'),
  ('xml.sax.handler',
   'c:\\users\\kalkan\\appdata\\local\\programs\\python\\python35\\lib\\xml\\sax\\handler.py',
   'PYMODULE'),
  ('xml.sax',
   'c:\\users\\kalkan\\appdata\\local\\programs\\python\\python35\\lib\\xml\\sax\\__init__.py',
   'PYMODULE'),
  ('xml.sax.expatreader',
   'c:\\users\\kalkan\\appdata\\local\\programs\\python\\python35\\lib\\xml\\sax\\expatreader.py',
   'PYMODULE'),
  ('xml.sax._exceptions',
   'c:\\users\\kalkan\\appdata\\local\\programs\\python\\python35\\lib\\xml\\sax\\_exceptions.py',
   'PYMODULE'),
  ('xml.sax.saxutils',
   'c:\\users\\kalkan\\appdata\\local\\programs\\python\\python35\\lib\\xml\\sax\\saxutils.py',
   'PYMODULE'),
  ('urllib.request',
   'c:\\users\\kalkan\\appdata\\local\\programs\\python\\python35\\lib\\urllib\\request.py',
   'PYMODULE'),
  ('getpass',
   'c:\\users\\kalkan\\appdata\\local\\programs\\python\\python35\\lib\\getpass.py',
   'PYMODULE'),
  ('nturl2path',
   'c:\\users\\kalkan\\appdata\\local\\programs\\python\\python35\\lib\\nturl2path.py',
   'PYMODULE'),
  ('ftplib',
   'c:\\users\\kalkan\\appdata\\local\\programs\\python\\python35\\lib\\ftplib.py',
   'PYMODULE'),
  ('netrc',
   'c:\\users\\kalkan\\appdata\\local\\programs\\python\\python35\\lib\\netrc.py',
   'PYMODULE'),
  ('http.cookiejar',
   'c:\\users\\kalkan\\appdata\\local\\programs\\python\\python35\\lib\\http\\cookiejar.py',
   'PYMODULE'),
  ('urllib.response',
   'c:\\users\\kalkan\\appdata\\local\\programs\\python\\python35\\lib\\urllib\\response.py',
   'PYMODULE'),
  ('urllib.error',
   'c:\\users\\kalkan\\appdata\\local\\programs\\python\\python35\\lib\\urllib\\error.py',
   'PYMODULE'),
  ('bisect',
   'c:\\users\\kalkan\\appdata\\local\\programs\\python\\python35\\lib\\bisect.py',
   'PYMODULE'),
  ('xml.sax.xmlreader',
   'c:\\users\\kalkan\\appdata\\local\\programs\\python\\python35\\lib\\xml\\sax\\xmlreader.py',
   'PYMODULE'),
  ('xml.dom.expatbuilder',
   'c:\\users\\kalkan\\appdata\\local\\programs\\python\\python35\\lib\\xml\\dom\\expatbuilder.py',
   'PYMODULE'),
  ('xml.dom.NodeFilter',
   'c:\\users\\kalkan\\appdata\\local\\programs\\python\\python35\\lib\\xml\\dom\\NodeFilter.py',
   'PYMODULE'),
  ('xml.dom.xmlbuilder',
   'c:\\users\\kalkan\\appdata\\local\\programs\\python\\python35\\lib\\xml\\dom\\xmlbuilder.py',
   'PYMODULE'),
  ('xml.dom.minicompat',
   'c:\\users\\kalkan\\appdata\\local\\programs\\python\\python35\\lib\\xml\\dom\\minicompat.py',
   'PYMODULE'),
  ('xml.dom.domreg',
   'c:\\users\\kalkan\\appdata\\local\\programs\\python\\python35\\lib\\xml\\dom\\domreg.py',
   'PYMODULE'),
  ('xml.dom',
   'c:\\users\\kalkan\\appdata\\local\\programs\\python\\python35\\lib\\xml\\dom\\__init__.py',
   'PYMODULE'),
  ('PyInstaller.utils.win32',
   'c:\\users\\kalkan\\appdata\\local\\programs\\python\\python35\\lib\\site-packages\\PyInstaller\\utils\\win32\\__init__.py',
   'PYMODULE'),
  ('PyInstaller.utils.win32.icon',
   'c:\\users\\kalkan\\appdata\\local\\programs\\python\\python35\\lib\\site-packages\\PyInstaller\\utils\\win32\\icon.py',
   'PYMODULE'),
  ('PyInstaller.utils.win32.versioninfo',
   'c:\\users\\kalkan\\appdata\\local\\programs\\python\\python35\\lib\\site-packages\\PyInstaller\\utils\\win32\\versioninfo.py',
   'PYMODULE'),
  ('pefile',
   'c:\\users\\kalkan\\appdata\\local\\programs\\python\\python35\\lib\\site-packages\\pefile.py',
   'PYMODULE'),
  ('ordlookup',
   'c:\\users\\kalkan\\appdata\\local\\programs\\python\\python35\\lib\\site-packages\\ordlookup\\__init__.py',
   'PYMODULE'),
  ('ordlookup.oleaut32',
   'c:\\users\\kalkan\\appdata\\local\\programs\\python\\python35\\lib\\site-packages\\ordlookup\\oleaut32.py',
   'PYMODULE'),
  ('ordlookup.ws2_32',
   'c:\\users\\kalkan\\appdata\\local\\programs\\python\\python35\\lib\\site-packages\\ordlookup\\ws2_32.py',
   'PYMODULE'),
  ('PyInstaller.utils.win32.winutils',
   'c:\\users\\kalkan\\appdata\\local\\programs\\python\\python35\\lib\\site-packages\\PyInstaller\\utils\\win32\\winutils.py',
   'PYMODULE'),
  ('site',
   'c:\\users\\kalkan\\appdata\\local\\programs\\python\\python35\\lib\\site-packages\\PyInstaller\\fake-modules\\site.py',
   'PYMODULE'),
  ('PyInstaller.utils',
   'c:\\users\\kalkan\\appdata\\local\\programs\\python\\python35\\lib\\site-packages\\PyInstaller\\utils\\__init__.py',
   'PYMODULE'),
  ('PyInstaller.configure',
   'c:\\users\\kalkan\\appdata\\local\\programs\\python\\python35\\lib\\site-packages\\PyInstaller\\configure.py',
   'PYMODULE'),
  ('PyInstaller.archive.pyz_crypto',
   'c:\\users\\kalkan\\appdata\\local\\programs\\python\\python35\\lib\\site-packages\\PyInstaller\\archive\\pyz_crypto.py',
   'PYMODULE'),
  ('PyInstaller.archive',
   'c:\\users\\kalkan\\appdata\\local\\programs\\python\\python35\\lib\\site-packages\\PyInstaller\\archive\\__init__.py',
   'PYMODULE'),
  ('PyInstaller.depend.utils',
   'c:\\users\\kalkan\\appdata\\local\\programs\\python\\python35\\lib\\site-packages\\PyInstaller\\depend\\utils.py',
   'PYMODULE'),
  ('distutils.spawn',
   'c:\\users\\kalkan\\appdata\\local\\programs\\python\\python35\\lib\\distutils\\spawn.py',
   'PYMODULE'),
  ('distutils.sysconfig',
   'c:\\users\\kalkan\\appdata\\local\\programs\\python\\python35\\lib\\distutils\\sysconfig.py',
   'PYMODULE'),
  ('distutils.text_file',
   'c:\\users\\kalkan\\appdata\\local\\programs\\python\\python35\\lib\\distutils\\text_file.py',
   'PYMODULE'),
  ('_osx_support',
   'c:\\users\\kalkan\\appdata\\local\\programs\\python\\python35\\lib\\_osx_support.py',
   'PYMODULE'),
  ('distutils.log',
   'c:\\users\\kalkan\\appdata\\local\\programs\\python\\python35\\lib\\distutils\\log.py',
   'PYMODULE'),
  ('distutils',
   'c:\\users\\kalkan\\appdata\\local\\programs\\python\\python35\\lib\\distutils\\__init__.py',
   'PYMODULE'),
  ('distutils.archive_util',
   'c:\\users\\kalkan\\appdata\\local\\programs\\python\\python35\\lib\\distutils\\archive_util.py',
   'PYMODULE'),
  ('distutils.dir_util',
   'c:\\users\\kalkan\\appdata\\local\\programs\\python\\python35\\lib\\distutils\\dir_util.py',
   'PYMODULE'),
  ('distutils.file_util',
   'c:\\users\\kalkan\\appdata\\local\\programs\\python\\python35\\lib\\distutils\\file_util.py',
   'PYMODULE'),
  ('distutils.dep_util',
   'c:\\users\\kalkan\\appdata\\local\\programs\\python\\python35\\lib\\distutils\\dep_util.py',
   'PYMODULE'),
  ('distutils.debug',
   'c:\\users\\kalkan\\appdata\\local\\programs\\python\\python35\\lib\\distutils\\debug.py',
   'PYMODULE'),
  ('distutils.errors',
   'c:\\users\\kalkan\\appdata\\local\\programs\\python\\python35\\lib\\distutils\\errors.py',
   'PYMODULE'),
  ('PyInstaller.depend.dylib',
   'c:\\users\\kalkan\\appdata\\local\\programs\\python\\python35\\lib\\site-packages\\PyInstaller\\depend\\dylib.py',
   'PYMODULE'),
  ('macholib.MachO',
   'c:\\users\\kalkan\\appdata\\local\\programs\\python\\python35\\lib\\site-packages\\macholib\\MachO.py',
   'PYMODULE'),
  ('macholib.dyld',
   'c:\\users\\kalkan\\appdata\\local\\programs\\python\\python35\\lib\\site-packages\\macholib\\dyld.py',
   'PYMODULE'),
  ('macholib.dylib',
   'c:\\users\\kalkan\\appdata\\local\\programs\\python\\python35\\lib\\site-packages\\macholib\\dylib.py',
   'PYMODULE'),
  ('macholib.framework',
   'c:\\users\\kalkan\\appdata\\local\\programs\\python\\python35\\lib\\site-packages\\macholib\\framework.py',
   'PYMODULE'),
  ('macholib.mach_o',
   'c:\\users\\kalkan\\appdata\\local\\programs\\python\\python35\\lib\\site-packages\\macholib\\mach_o.py',
   'PYMODULE'),
  ('macholib.ptypes',
   'c:\\users\\kalkan\\appdata\\local\\programs\\python\\python35\\lib\\site-packages\\macholib\\ptypes.py',
   'PYMODULE'),
  ('macholib.util',
   'c:\\users\\kalkan\\appdata\\local\\programs\\python\\python35\\lib\\site-packages\\macholib\\util.py',
   'PYMODULE'),
  ('macholib',
   'c:\\users\\kalkan\\appdata\\local\\programs\\python\\python35\\lib\\site-packages\\macholib\\__init__.py',
   'PYMODULE'),
  ('PyInstaller.lib.modulegraph.util',
   'c:\\users\\kalkan\\appdata\\local\\programs\\python\\python35\\lib\\site-packages\\PyInstaller\\lib\\modulegraph\\util.py',
   'PYMODULE'),
  ('PyInstaller.lib.modulegraph._compat',
   'c:\\users\\kalkan\\appdata\\local\\programs\\python\\python35\\lib\\site-packages\\PyInstaller\\lib\\modulegraph\\_compat.py',
   'PYMODULE'),
  ('PyInstaller.lib.modulegraph.modulegraph',
   'c:\\users\\kalkan\\appdata\\local\\programs\\python\\python35\\lib\\site-packages\\PyInstaller\\lib\\modulegraph\\modulegraph.py',
   'PYMODULE'),
  ('PyInstaller.lib.modulegraph.zipio',
   'c:\\users\\kalkan\\appdata\\local\\programs\\python\\python35\\lib\\site-packages\\PyInstaller\\lib\\modulegraph\\zipio.py',
   'PYMODULE'),
  ('PyInstaller.lib.altgraph',
   'c:\\users\\kalkan\\appdata\\local\\programs\\python\\python35\\lib\\site-packages\\PyInstaller\\lib\\altgraph\\__init__.py',
   'PYMODULE'),
  ('PyInstaller.lib',
   'c:\\users\\kalkan\\appdata\\local\\programs\\python\\python35\\lib\\site-packages\\PyInstaller\\lib\\__init__.py',
   'PYMODULE'),
  ('PyInstaller.lib.altgraph.ObjectGraph',
   'c:\\users\\kalkan\\appdata\\local\\programs\\python\\python35\\lib\\site-packages\\PyInstaller\\lib\\altgraph\\ObjectGraph.py',
   'PYMODULE'),
  ('PyInstaller.lib.altgraph.GraphUtil',
   'c:\\users\\kalkan\\appdata\\local\\programs\\python\\python35\\lib\\site-packages\\PyInstaller\\lib\\altgraph\\GraphUtil.py',
   'PYMODULE'),
  ('PyInstaller.lib.altgraph.Graph',
   'c:\\users\\kalkan\\appdata\\local\\programs\\python\\python35\\lib\\site-packages\\PyInstaller\\lib\\altgraph\\Graph.py',
   'PYMODULE'),
  ('PyInstaller.lib.modulegraph',
   'c:\\users\\kalkan\\appdata\\local\\programs\\python\\python35\\lib\\site-packages\\PyInstaller\\lib\\modulegraph\\__init__.py',
   'PYMODULE'),
  ('PyInstaller.building.utils',
   'c:\\users\\kalkan\\appdata\\local\\programs\\python\\python35\\lib\\site-packages\\PyInstaller\\building\\utils.py',
   'PYMODULE'),
  ('PyInstaller.building.toc_conversion',
   'c:\\users\\kalkan\\appdata\\local\\programs\\python\\python35\\lib\\site-packages\\PyInstaller\\building\\toc_conversion.py',
   'PYMODULE'),
  ('PyInstaller.utils.hooks',
   'c:\\users\\kalkan\\appdata\\local\\programs\\python\\python35\\lib\\site-packages\\PyInstaller\\utils\\hooks\\__init__.py',
   'PYMODULE'),
  ('PyInstaller.utils.hooks.win32',
   'c:\\users\\kalkan\\appdata\\local\\programs\\python\\python35\\lib\\site-packages\\PyInstaller\\utils\\hooks\\win32.py',
   'PYMODULE'),
  ('PyInstaller.utils.hooks.qt',
   'c:\\users\\kalkan\\appdata\\local\\programs\\python\\python35\\lib\\site-packages\\PyInstaller\\utils\\hooks\\qt.py',
   'PYMODULE'),
  ('PyInstaller.utils.hooks.gi',
   'c:\\users\\kalkan\\appdata\\local\\programs\\python\\python35\\lib\\site-packages\\PyInstaller\\utils\\hooks\\gi.py',
   'PYMODULE'),
  ('PyInstaller.utils.hooks.django',
   'c:\\users\\kalkan\\appdata\\local\\programs\\python\\python35\\lib\\site-packages\\PyInstaller\\utils\\hooks\\django.py',
   'PYMODULE'),
  ('PyInstaller.building.osx',
   'c:\\users\\kalkan\\appdata\\local\\programs\\python\\python35\\lib\\site-packages\\PyInstaller\\building\\osx.py',
   'PYMODULE'),
  ('PyInstaller.building.imphook',
   'c:\\users\\kalkan\\appdata\\local\\programs\\python\\python35\\lib\\site-packages\\PyInstaller\\building\\imphook.py',
   'PYMODULE'),
  ('PyInstaller.building.imphookapi',
   'c:\\users\\kalkan\\appdata\\local\\programs\\python\\python35\\lib\\site-packages\\PyInstaller\\building\\imphookapi.py',
   'PYMODULE'),
  ('PyInstaller.building.datastruct',
   'c:\\users\\kalkan\\appdata\\local\\programs\\python\\python35\\lib\\site-packages\\PyInstaller\\building\\datastruct.py',
   'PYMODULE'),
  ('PyInstaller.building.api',
   'c:\\users\\kalkan\\appdata\\local\\programs\\python\\python35\\lib\\site-packages\\PyInstaller\\building\\api.py',
   'PYMODULE'),
  ('PyInstaller.utils.osx',
   'c:\\users\\kalkan\\appdata\\local\\programs\\python\\python35\\lib\\site-packages\\PyInstaller\\utils\\osx.py',
   'PYMODULE'),
  ('PyInstaller.archive.writers',
   'c:\\users\\kalkan\\appdata\\local\\programs\\python\\python35\\lib\\site-packages\\PyInstaller\\archive\\writers.py',
   'PYMODULE'),
  ('PyInstaller.archive.readers',
   'c:\\users\\kalkan\\appdata\\local\\programs\\python\\python35\\lib\\site-packages\\PyInstaller\\archive\\readers.py',
   'PYMODULE'),
  ('PyInstaller.loader.pyimod02_archive',
   'c:\\users\\kalkan\\appdata\\local\\programs\\python\\python35\\lib\\site-packages\\PyInstaller\\loader\\pyimod02_archive.py',
   'PYMODULE'),
  ('PyInstaller.loader',
   'c:\\users\\kalkan\\appdata\\local\\programs\\python\\python35\\lib\\site-packages\\PyInstaller\\loader\\__init__.py',
   'PYMODULE'),
  ('PyInstaller.depend.analysis',
   'c:\\users\\kalkan\\appdata\\local\\programs\\python\\python35\\lib\\site-packages\\PyInstaller\\depend\\analysis.py',
   'PYMODULE'),
  ('PyInstaller.lib.modulegraph.find_modules',
   'c:\\users\\kalkan\\appdata\\local\\programs\\python\\python35\\lib\\site-packages\\PyInstaller\\lib\\modulegraph\\find_modules.py',
   'PYMODULE'),
  ('xml.etree',
   'c:\\users\\kalkan\\appdata\\local\\programs\\python\\python35\\lib\\xml\\etree\\__init__.py',
   'PYMODULE'),
  ('PyInstaller.depend.bindepend',
   'c:\\users\\kalkan\\appdata\\local\\programs\\python\\python35\\lib\\site-packages\\PyInstaller\\depend\\bindepend.py',
   'PYMODULE'),
  ('PyInstaller.depend',
   'c:\\users\\kalkan\\appdata\\local\\programs\\python\\python35\\lib\\site-packages\\PyInstaller\\depend\\__init__.py',
   'PYMODULE'),
  ('PyInstaller.utils.misc',
   'c:\\users\\kalkan\\appdata\\local\\programs\\python\\python35\\lib\\site-packages\\PyInstaller\\utils\\misc.py',
   'PYMODULE'),
  ('PyInstaller.building.makespec',
   'c:\\users\\kalkan\\appdata\\local\\programs\\python\\python35\\lib\\site-packages\\PyInstaller\\building\\makespec.py',
   'PYMODULE'),
  ('PyInstaller.building.templates',
   'c:\\users\\kalkan\\appdata\\local\\programs\\python\\python35\\lib\\site-packages\\PyInstaller\\building\\templates.py',
   'PYMODULE'),
  ('distutils.version',
   'c:\\users\\kalkan\\appdata\\local\\programs\\python\\python35\\lib\\distutils\\version.py',
   'PYMODULE'),
  ('PyInstaller.compat',
   'c:\\users\\kalkan\\appdata\\local\\programs\\python\\python35\\lib\\site-packages\\PyInstaller\\compat.py',
   'PYMODULE'),
  ('PyInstaller.log',
   'c:\\users\\kalkan\\appdata\\local\\programs\\python\\python35\\lib\\site-packages\\PyInstaller\\log.py',
   'PYMODULE'),
  ('PyInstaller',
   'c:\\users\\kalkan\\appdata\\local\\programs\\python\\python35\\lib\\site-packages\\PyInstaller\\__init__.py',
   'PYMODULE'),
  ('PyInstaller.utils.git',
   'c:\\users\\kalkan\\appdata\\local\\programs\\python\\python35\\lib\\site-packages\\PyInstaller\\utils\\git.py',
   'PYMODULE'),
  ('PyInstaller.utils._gitrevision',
   'c:\\users\\kalkan\\appdata\\local\\programs\\python\\python35\\lib\\site-packages\\PyInstaller\\utils\\_gitrevision.py',
   'PYMODULE'),
  ('distutils.util',
   'c:\\users\\kalkan\\appdata\\local\\programs\\python\\python35\\lib\\distutils\\util.py',
   'PYMODULE'),
  ('distutils.filelist',
   'c:\\users\\kalkan\\appdata\\local\\programs\\python\\python35\\lib\\distutils\\filelist.py',
   'PYMODULE'),
  ('lib2to3.refactor',
   'c:\\users\\kalkan\\appdata\\local\\programs\\python\\python35\\lib\\lib2to3\\refactor.py',
   'PYMODULE'),
  ('multiprocessing',
   'c:\\users\\kalkan\\appdata\\local\\programs\\python\\python35\\lib\\multiprocessing\\__init__.py',
   'PYMODULE'),
  ('multiprocessing.spawn',
   'c:\\users\\kalkan\\appdata\\local\\programs\\python\\python35\\lib\\multiprocessing\\spawn.py',
   'PYMODULE'),
  ('runpy',
   'c:\\users\\kalkan\\appdata\\local\\programs\\python\\python35\\lib\\runpy.py',
   'PYMODULE'),
  ('multiprocessing.semaphore_tracker',
   'c:\\users\\kalkan\\appdata\\local\\programs\\python\\python35\\lib\\multiprocessing\\semaphore_tracker.py',
   'PYMODULE'),
  ('multiprocessing.pool',
   'c:\\users\\kalkan\\appdata\\local\\programs\\python\\python35\\lib\\multiprocessing\\pool.py',
   'PYMODULE'),
  ('multiprocessing.dummy',
   'c:\\users\\kalkan\\appdata\\local\\programs\\python\\python35\\lib\\multiprocessing\\dummy\\__init__.py',
   'PYMODULE'),
  ('multiprocessing.dummy.connection',
   'c:\\users\\kalkan\\appdata\\local\\programs\\python\\python35\\lib\\multiprocessing\\dummy\\connection.py',
   'PYMODULE'),
  ('queue',
   'c:\\users\\kalkan\\appdata\\local\\programs\\python\\python35\\lib\\queue.py',
   'PYMODULE'),
  ('multiprocessing.connection',
   'c:\\users\\kalkan\\appdata\\local\\programs\\python\\python35\\lib\\multiprocessing\\connection.py',
   'PYMODULE'),
  ('xmlrpc.client',
   'c:\\users\\kalkan\\appdata\\local\\programs\\python\\python35\\lib\\xmlrpc\\client.py',
   'PYMODULE'),
  ('xmlrpc',
   'c:\\users\\kalkan\\appdata\\local\\programs\\python\\python35\\lib\\xmlrpc\\__init__.py',
   'PYMODULE'),
  ('hmac',
   'c:\\users\\kalkan\\appdata\\local\\programs\\python\\python35\\lib\\hmac.py',
   'PYMODULE'),
  ('multiprocessing.resource_sharer',
   'c:\\users\\kalkan\\appdata\\local\\programs\\python\\python35\\lib\\multiprocessing\\resource_sharer.py',
   'PYMODULE'),
  ('multiprocessing.reduction',
   'c:\\users\\kalkan\\appdata\\local\\programs\\python\\python35\\lib\\multiprocessing\\reduction.py',
   'PYMODULE'),
  ('multiprocessing.util',
   'c:\\users\\kalkan\\appdata\\local\\programs\\python\\python35\\lib\\multiprocessing\\util.py',
   'PYMODULE'),
  ('multiprocessing.process',
   'c:\\users\\kalkan\\appdata\\local\\programs\\python\\python35\\lib\\multiprocessing\\process.py',
   'PYMODULE'),
  ('multiprocessing.context',
   'c:\\users\\kalkan\\appdata\\local\\programs\\python\\python35\\lib\\multiprocessing\\context.py',
   'PYMODULE'),
  ('multiprocessing.popen_spawn_win32',
   'c:\\users\\kalkan\\appdata\\local\\programs\\python\\python35\\lib\\multiprocessing\\popen_spawn_win32.py',
   'PYMODULE'),
  ('multiprocessing.popen_forkserver',
   'c:\\users\\kalkan\\appdata\\local\\programs\\python\\python35\\lib\\multiprocessing\\popen_forkserver.py',
   'PYMODULE'),
  ('multiprocessing.popen_spawn_posix',
   'c:\\users\\kalkan\\appdata\\local\\programs\\python\\python35\\lib\\multiprocessing\\popen_spawn_posix.py',
   'PYMODULE'),
  ('multiprocessing.popen_fork',
   'c:\\users\\kalkan\\appdata\\local\\programs\\python\\python35\\lib\\multiprocessing\\popen_fork.py',
   'PYMODULE'),
  ('multiprocessing.forkserver',
   'c:\\users\\kalkan\\appdata\\local\\programs\\python\\python35\\lib\\multiprocessing\\forkserver.py',
   'PYMODULE'),
  ('multiprocessing.sharedctypes',
   'c:\\users\\kalkan\\appdata\\local\\programs\\python\\python35\\lib\\multiprocessing\\sharedctypes.py',
   'PYMODULE'),
  ('multiprocessing.heap',
   'c:\\users\\kalkan\\appdata\\local\\programs\\python\\python35\\lib\\multiprocessing\\heap.py',
   'PYMODULE'),
  ('multiprocessing.queues',
   'c:\\users\\kalkan\\appdata\\local\\programs\\python\\python35\\lib\\multiprocessing\\queues.py',
   'PYMODULE'),
  ('multiprocessing.synchronize',
   'c:\\users\\kalkan\\appdata\\local\\programs\\python\\python35\\lib\\multiprocessing\\synchronize.py',
   'PYMODULE'),
  ('multiprocessing.managers',
   'c:\\users\\kalkan\\appdata\\local\\programs\\python\\python35\\lib\\multiprocessing\\managers.py',
   'PYMODULE'),
  ('lib2to3.btm_matcher',
   'c:\\users\\kalkan\\appdata\\local\\programs\\python\\python35\\lib\\lib2to3\\btm_matcher.py',
   'PYMODULE'),
  ('lib2to3.btm_utils',
   'c:\\users\\kalkan\\appdata\\local\\programs\\python\\python35\\lib\\lib2to3\\btm_utils.py',
   'PYMODULE'),
  ('lib2to3.pgen2.grammar',
   'c:\\users\\kalkan\\appdata\\local\\programs\\python\\python35\\lib\\lib2to3\\pgen2\\grammar.py',
   'PYMODULE'),
  ('lib2to3.pytree',
   'c:\\users\\kalkan\\appdata\\local\\programs\\python\\python35\\lib\\lib2to3\\pytree.py',
   'PYMODULE'),
  ('lib2to3.pygram',
   'c:\\users\\kalkan\\appdata\\local\\programs\\python\\python35\\lib\\lib2to3\\pygram.py',
   'PYMODULE'),
  ('lib2to3',
   'c:\\users\\kalkan\\appdata\\local\\programs\\python\\python35\\lib\\lib2to3\\__init__.py',
   'PYMODULE'),
  ('lib2to3.patcomp',
   'c:\\users\\kalkan\\appdata\\local\\programs\\python\\python35\\lib\\lib2to3\\patcomp.py',
   'PYMODULE'),
  ('lib2to3.pgen2.literals',
   'c:\\users\\kalkan\\appdata\\local\\programs\\python\\python35\\lib\\lib2to3\\pgen2\\literals.py',
   'PYMODULE'),
  ('lib2to3.pgen2.parse',
   'c:\\users\\kalkan\\appdata\\local\\programs\\python\\python35\\lib\\lib2to3\\pgen2\\parse.py',
   'PYMODULE'),
  ('lib2to3.fixer_util',
   'c:\\users\\kalkan\\appdata\\local\\programs\\python\\python35\\lib\\lib2to3\\fixer_util.py',
   'PYMODULE'),
  ('lib2to3.pgen2.token',
   'c:\\users\\kalkan\\appdata\\local\\programs\\python\\python35\\lib\\lib2to3\\pgen2\\token.py',
   'PYMODULE'),
  ('lib2to3.pgen2.tokenize',
   'c:\\users\\kalkan\\appdata\\local\\programs\\python\\python35\\lib\\lib2to3\\pgen2\\tokenize.py',
   'PYMODULE'),
  ('lib2to3.pgen2.driver',
   'c:\\users\\kalkan\\appdata\\local\\programs\\python\\python35\\lib\\lib2to3\\pgen2\\driver.py',
   'PYMODULE'),
  ('lib2to3.pgen2.pgen',
   'c:\\users\\kalkan\\appdata\\local\\programs\\python\\python35\\lib\\lib2to3\\pgen2\\pgen.py',
   'PYMODULE'),
  ('lib2to3.pgen2',
   'c:\\users\\kalkan\\appdata\\local\\programs\\python\\python35\\lib\\lib2to3\\pgen2\\__init__.py',
   'PYMODULE'),
  ('sysconfig',
   'c:\\users\\kalkan\\appdata\\local\\programs\\python\\python35\\lib\\sysconfig.py',
   'PYMODULE'),
  ('pkg_resources.py31compat',
   'c:\\users\\kalkan\\appdata\\local\\programs\\python\\python35\\lib\\site-packages\\pkg_resources\\py31compat.py',
   'PYMODULE'),
  ('pkg_resources.extern',
   'c:\\users\\kalkan\\appdata\\local\\programs\\python\\python35\\lib\\site-packages\\pkg_resources\\extern\\__init__.py',
   'PYMODULE'),
  ('ntpath',
   'c:\\users\\kalkan\\appdata\\local\\programs\\python\\python35\\lib\\ntpath.py',
   'PYMODULE'),
  ('_strptime',
   'c:\\users\\kalkan\\appdata\\local\\programs\\python\\python35\\lib\\_strptime.py',
   'PYMODULE'),
  ('datetime',
   'c:\\users\\kalkan\\appdata\\local\\programs\\python\\python35\\lib\\datetime.py',
   'PYMODULE'),
  ('stringprep',
   'c:\\users\\kalkan\\appdata\\local\\programs\\python\\python35\\lib\\stringprep.py',
   'PYMODULE'),
  ('_compat_pickle',
   'c:\\users\\kalkan\\appdata\\local\\programs\\python\\python35\\lib\\_compat_pickle.py',
   'PYMODULE'),
  ('pickle',
   'c:\\users\\kalkan\\appdata\\local\\programs\\python\\python35\\lib\\pickle.py',
   'PYMODULE'),
  ('__future__',
   'c:\\users\\kalkan\\appdata\\local\\programs\\python\\python35\\lib\\__future__.py',
   'PYMODULE'),
  ('difflib',
   'c:\\users\\kalkan\\appdata\\local\\programs\\python\\python35\\lib\\difflib.py',
   'PYMODULE'),
  ('ast',
   'c:\\users\\kalkan\\appdata\\local\\programs\\python\\python35\\lib\\ast.py',
   'PYMODULE'),
  ('imp',
   'c:\\users\\kalkan\\appdata\\local\\programs\\python\\python35\\lib\\imp.py',
   'PYMODULE'),
  ('inspect',
   'c:\\users\\kalkan\\appdata\\local\\programs\\python\\python35\\lib\\inspect.py',
   'PYMODULE'),
  ('cmd',
   'c:\\users\\kalkan\\appdata\\local\\programs\\python\\python35\\lib\\cmd.py',
   'PYMODULE'),
  ('bdb',
   'c:\\users\\kalkan\\appdata\\local\\programs\\python\\python35\\lib\\bdb.py',
   'PYMODULE'),
  ('opcode',
   'c:\\users\\kalkan\\appdata\\local\\programs\\python\\python35\\lib\\opcode.py',
   'PYMODULE'),
  ('dis',
   'c:\\users\\kalkan\\appdata\\local\\programs\\python\\python35\\lib\\dis.py',
   'PYMODULE'),
  ('codeop',
   'c:\\users\\kalkan\\appdata\\local\\programs\\python\\python35\\lib\\codeop.py',
   'PYMODULE'),
  ('code',
   'c:\\users\\kalkan\\appdata\\local\\programs\\python\\python35\\lib\\code.py',
   'PYMODULE'),
  ('glob',
   'c:\\users\\kalkan\\appdata\\local\\programs\\python\\python35\\lib\\glob.py',
   'PYMODULE'),
  ('shlex',
   'c:\\users\\kalkan\\appdata\\local\\programs\\python\\python35\\lib\\shlex.py',
   'PYMODULE'),
  ('importlib._bootstrap',
   'c:\\users\\kalkan\\appdata\\local\\programs\\python\\python35\\lib\\importlib\\_bootstrap.py',
   'PYMODULE'),
  ('importlib._bootstrap_external',
   'c:\\users\\kalkan\\appdata\\local\\programs\\python\\python35\\lib\\importlib\\_bootstrap_external.py',
   'PYMODULE'),
  ('importlib.machinery',
   'c:\\users\\kalkan\\appdata\\local\\programs\\python\\python35\\lib\\importlib\\machinery.py',
   'PYMODULE'),
  ('importlib.util',
   'c:\\users\\kalkan\\appdata\\local\\programs\\python\\python35\\lib\\importlib\\util.py',
   'PYMODULE'),
  ('importlib.abc',
   'c:\\users\\kalkan\\appdata\\local\\programs\\python\\python35\\lib\\importlib\\abc.py',
   'PYMODULE'),
  ('importlib',
   'c:\\users\\kalkan\\appdata\\local\\programs\\python\\python35\\lib\\importlib\\__init__.py',
   'PYMODULE'),
  ('pkgutil',
   'c:\\users\\kalkan\\appdata\\local\\programs\\python\\python35\\lib\\pkgutil.py',
   'PYMODULE'),
  ('ctypes._endian',
   'c:\\users\\kalkan\\appdata\\local\\programs\\python\\python35\\lib\\ctypes\\_endian.py',
   'PYMODULE'),
  ('ctypes',
   'c:\\users\\kalkan\\appdata\\local\\programs\\python\\python35\\lib\\ctypes\\__init__.py',
   'PYMODULE'),
  ('ctypes.wintypes',
   'c:\\users\\kalkan\\appdata\\local\\programs\\python\\python35\\lib\\ctypes\\wintypes.py',
   'PYMODULE'),
  ('xml',
   'c:\\users\\kalkan\\appdata\\local\\programs\\python\\python35\\lib\\xml\\__init__.py',
   'PYMODULE'),
  ('xml.parsers',
   'c:\\users\\kalkan\\appdata\\local\\programs\\python\\python35\\lib\\xml\\parsers\\__init__.py',
   'PYMODULE'),
  ('xml.parsers.expat',
   'c:\\users\\kalkan\\appdata\\local\\programs\\python\\python35\\lib\\xml\\parsers\\expat.py',
   'PYMODULE'),
  ('plistlib',
   'c:\\users\\kalkan\\appdata\\local\\programs\\python\\python35\\lib\\plistlib.py',
   'PYMODULE'),
  ('platform',
   'c:\\users\\kalkan\\appdata\\local\\programs\\python\\python35\\lib\\platform.py',
   'PYMODULE'),
  ('urllib.parse',
   'c:\\users\\kalkan\\appdata\\local\\programs\\python\\python35\\lib\\urllib\\parse.py',
   'PYMODULE'),
  ('tempfile',
   'c:\\users\\kalkan\\appdata\\local\\programs\\python\\python35\\lib\\tempfile.py',
   'PYMODULE'),
  ('tty',
   'c:\\users\\kalkan\\appdata\\local\\programs\\python\\python35\\lib\\tty.py',
   'PYMODULE'),
  ('pydoc_data',
   'c:\\users\\kalkan\\appdata\\local\\programs\\python\\python35\\lib\\pydoc_data\\__init__.py',
   'PYMODULE'),
  ('pydoc_data.topics',
   'c:\\users\\kalkan\\appdata\\local\\programs\\python\\python35\\lib\\pydoc_data\\topics.py',
   'PYMODULE'),
  ('html.entities',
   'c:\\users\\kalkan\\appdata\\local\\programs\\python\\python35\\lib\\html\\entities.py',
   'PYMODULE'),
  ('html',
   'c:\\users\\kalkan\\appdata\\local\\programs\\python\\python35\\lib\\html\\__init__.py',
   'PYMODULE'),
  ('ipaddress',
   'c:\\users\\kalkan\\appdata\\local\\programs\\python\\python35\\lib\\ipaddress.py',
   'PYMODULE'),
  ('ssl',
   'c:\\users\\kalkan\\appdata\\local\\programs\\python\\python35\\lib\\ssl.py',
   'PYMODULE'),
  ('http.client',
   'c:\\users\\kalkan\\appdata\\local\\programs\\python\\python35\\lib\\http\\client.py',
   'PYMODULE'),
  ('mimetypes',
   'c:\\users\\kalkan\\appdata\\local\\programs\\python\\python35\\lib\\mimetypes.py',
   'PYMODULE'),
  ('socketserver',
   'c:\\users\\kalkan\\appdata\\local\\programs\\python\\python35\\lib\\socketserver.py',
   'PYMODULE'),
  ('http',
   'c:\\users\\kalkan\\appdata\\local\\programs\\python\\python35\\lib\\http\\__init__.py',
   'PYMODULE'),
  ('http.server',
   'c:\\users\\kalkan\\appdata\\local\\programs\\python\\python35\\lib\\http\\server.py',
   'PYMODULE'),
  ('uu',
   'c:\\users\\kalkan\\appdata\\local\\programs\\python\\python35\\lib\\uu.py',
   'PYMODULE'),
  ('quopri',
   'c:\\users\\kalkan\\appdata\\local\\programs\\python\\python35\\lib\\quopri.py',
   'PYMODULE'),
  ('email.feedparser',
   'c:\\users\\kalkan\\appdata\\local\\programs\\python\\python35\\lib\\email\\feedparser.py',
   'PYMODULE'),
  ('email.parser',
   'c:\\users\\kalkan\\appdata\\local\\programs\\python\\python35\\lib\\email\\parser.py',
   'PYMODULE'),
  ('email',
   'c:\\users\\kalkan\\appdata\\local\\programs\\python\\python35\\lib\\email\\__init__.py',
   'PYMODULE'),
  ('optparse',
   'c:\\users\\kalkan\\appdata\\local\\programs\\python\\python35\\lib\\optparse.py',
   'PYMODULE'),
  ('calendar',
   'c:\\users\\kalkan\\appdata\\local\\programs\\python\\python35\\lib\\calendar.py',
   'PYMODULE'),
  ('email._parseaddr',
   'c:\\users\\kalkan\\appdata\\local\\programs\\python\\python35\\lib\\email\\_parseaddr.py',
   'PYMODULE'),
  ('email.utils',
   'c:\\users\\kalkan\\appdata\\local\\programs\\python\\python35\\lib\\email\\utils.py',
   'PYMODULE'),
  ('email.errors',
   'c:\\users\\kalkan\\appdata\\local\\programs\\python\\python35\\lib\\email\\errors.py',
   'PYMODULE'),
  ('email.header',
   'c:\\users\\kalkan\\appdata\\local\\programs\\python\\python35\\lib\\email\\header.py',
   'PYMODULE'),
  ('email._policybase',
   'c:\\users\\kalkan\\appdata\\local\\programs\\python\\python35\\lib\\email\\_policybase.py',
   'PYMODULE'),
  ('email.base64mime',
   'c:\\users\\kalkan\\appdata\\local\\programs\\python\\python35\\lib\\email\\base64mime.py',
   'PYMODULE'),
  ('email.encoders',
   'c:\\users\\kalkan\\appdata\\local\\programs\\python\\python35\\lib\\email\\encoders.py',
   'PYMODULE'),
  ('email.charset',
   'c:\\users\\kalkan\\appdata\\local\\programs\\python\\python35\\lib\\email\\charset.py',
   'PYMODULE'),
  ('base64',
   'c:\\users\\kalkan\\appdata\\local\\programs\\python\\python35\\lib\\base64.py',
   'PYMODULE'),
  ('email._encoded_words',
   'c:\\users\\kalkan\\appdata\\local\\programs\\python\\python35\\lib\\email\\_encoded_words.py',
   'PYMODULE'),
  ('hashlib',
   'c:\\users\\kalkan\\appdata\\local\\programs\\python\\python35\\lib\\hashlib.py',
   'PYMODULE'),
  ('random',
   'c:\\users\\kalkan\\appdata\\local\\programs\\python\\python35\\lib\\random.py',
   'PYMODULE'),
  ('email.generator',
   'c:\\users\\kalkan\\appdata\\local\\programs\\python\\python35\\lib\\email\\generator.py',
   'PYMODULE'),
  ('email.iterators',
   'c:\\users\\kalkan\\appdata\\local\\programs\\python\\python35\\lib\\email\\iterators.py',
   'PYMODULE'),
  ('urllib',
   'c:\\users\\kalkan\\appdata\\local\\programs\\python\\python35\\lib\\urllib\\__init__.py',
   'PYMODULE'),
  ('email._header_value_parser',
   'c:\\users\\kalkan\\appdata\\local\\programs\\python\\python35\\lib\\email\\_header_value_parser.py',
   'PYMODULE'),
  ('email.headerregistry',
   'c:\\users\\kalkan\\appdata\\local\\programs\\python\\python35\\lib\\email\\headerregistry.py',
   'PYMODULE'),
  ('email.quoprimime',
   'c:\\users\\kalkan\\appdata\\local\\programs\\python\\python35\\lib\\email\\quoprimime.py',
   'PYMODULE'),
  ('email.contentmanager',
   'c:\\users\\kalkan\\appdata\\local\\programs\\python\\python35\\lib\\email\\contentmanager.py',
   'PYMODULE'),
  ('email.policy',
   'c:\\users\\kalkan\\appdata\\local\\programs\\python\\python35\\lib\\email\\policy.py',
   'PYMODULE'),
  ('email.message',
   'c:\\users\\kalkan\\appdata\\local\\programs\\python\\python35\\lib\\email\\message.py',
   'PYMODULE'),
  ('gzip',
   'c:\\users\\kalkan\\appdata\\local\\programs\\python\\python35\\lib\\gzip.py',
   'PYMODULE'),
  ('tarfile',
   'c:\\users\\kalkan\\appdata\\local\\programs\\python\\python35\\lib\\tarfile.py',
   'PYMODULE'),
  ('bz2',
   'c:\\users\\kalkan\\appdata\\local\\programs\\python\\python35\\lib\\bz2.py',
   'PYMODULE'),
  ('_compression',
   'c:\\users\\kalkan\\appdata\\local\\programs\\python\\python35\\lib\\_compression.py',
   'PYMODULE'),
  ('lzma',
   'c:\\users\\kalkan\\appdata\\local\\programs\\python\\python35\\lib\\lzma.py',
   'PYMODULE'),
  ('py_compile',
   'c:\\users\\kalkan\\appdata\\local\\programs\\python\\python35\\lib\\py_compile.py',
   'PYMODULE'),
  ('zipfile',
   'c:\\users\\kalkan\\appdata\\local\\programs\\python\\python35\\lib\\zipfile.py',
   'PYMODULE'),
  ('shutil',
   'c:\\users\\kalkan\\appdata\\local\\programs\\python\\python35\\lib\\shutil.py',
   'PYMODULE'),
  ('socket',
   'c:\\users\\kalkan\\appdata\\local\\programs\\python\\python35\\lib\\socket.py',
   'PYMODULE'),
  ('webbrowser',
   'c:\\users\\kalkan\\appdata\\local\\programs\\python\\python35\\lib\\webbrowser.py',
   'PYMODULE'),
  ('pydoc',
   'c:\\users\\kalkan\\appdata\\local\\programs\\python\\python35\\lib\\pydoc.py',
   'PYMODULE'),
  ('getopt',
   'c:\\users\\kalkan\\appdata\\local\\programs\\python\\python35\\lib\\getopt.py',
   'PYMODULE'),
  ('pdb',
   'c:\\users\\kalkan\\appdata\\local\\programs\\python\\python35\\lib\\pdb.py',
   'PYMODULE'),
  ('unittest.util',
   'c:\\users\\kalkan\\appdata\\local\\programs\\python\\python35\\lib\\unittest\\util.py',
   'PYMODULE'),
  ('unittest.result',
   'c:\\users\\kalkan\\appdata\\local\\programs\\python\\python35\\lib\\unittest\\result.py',
   'PYMODULE'),
  ('string',
   'c:\\users\\kalkan\\appdata\\local\\programs\\python\\python35\\lib\\string.py',
   'PYMODULE'),
  ('logging',
   'c:\\users\\kalkan\\appdata\\local\\programs\\python\\python35\\lib\\logging\\__init__.py',
   'PYMODULE'),
  ('pprint',
   'c:\\users\\kalkan\\appdata\\local\\programs\\python\\python35\\lib\\pprint.py',
   'PYMODULE'),
  ('unittest.case',
   'c:\\users\\kalkan\\appdata\\local\\programs\\python\\python35\\lib\\unittest\\case.py',
   'PYMODULE'),
  ('unittest.suite',
   'c:\\users\\kalkan\\appdata\\local\\programs\\python\\python35\\lib\\unittest\\suite.py',
   'PYMODULE'),
  ('fnmatch',
   'c:\\users\\kalkan\\appdata\\local\\programs\\python\\python35\\lib\\fnmatch.py',
   'PYMODULE'),
  ('unittest.loader',
   'c:\\users\\kalkan\\appdata\\local\\programs\\python\\python35\\lib\\unittest\\loader.py',
   'PYMODULE'),
  ('unittest.runner',
   'c:\\users\\kalkan\\appdata\\local\\programs\\python\\python35\\lib\\unittest\\runner.py',
   'PYMODULE'),
  ('unittest.main',
   'c:\\users\\kalkan\\appdata\\local\\programs\\python\\python35\\lib\\unittest\\main.py',
   'PYMODULE'),
  ('unittest.signals',
   'c:\\users\\kalkan\\appdata\\local\\programs\\python\\python35\\lib\\unittest\\signals.py',
   'PYMODULE'),
  ('unittest',
   'c:\\users\\kalkan\\appdata\\local\\programs\\python\\python35\\lib\\unittest\\__init__.py',
   'PYMODULE'),
  ('doctest',
   'c:\\users\\kalkan\\appdata\\local\\programs\\python\\python35\\lib\\doctest.py',
   'PYMODULE'),
  ('stat',
   'c:\\users\\kalkan\\appdata\\local\\programs\\python\\python35\\lib\\stat.py',
   'PYMODULE'),
  ('genericpath',
   'c:\\users\\kalkan\\appdata\\local\\programs\\python\\python35\\lib\\genericpath.py',
   'PYMODULE'),
  ('posixpath',
   'c:\\users\\kalkan\\appdata\\local\\programs\\python\\python35\\lib\\posixpath.py',
   'PYMODULE'),
  ('warnings',
   'c:\\users\\kalkan\\appdata\\local\\programs\\python\\python35\\lib\\warnings.py',
   'PYMODULE'),
  ('enum',
   'c:\\users\\kalkan\\appdata\\local\\programs\\python\\python35\\lib\\enum.py',
   'PYMODULE'),
  ('signal',
   'c:\\users\\kalkan\\appdata\\local\\programs\\python\\python35\\lib\\signal.py',
   'PYMODULE'),
  ('contextlib',
   'c:\\users\\kalkan\\appdata\\local\\programs\\python\\python35\\lib\\contextlib.py',
   'PYMODULE'),
  ('_threading_local',
   'c:\\users\\kalkan\\appdata\\local\\programs\\python\\python35\\lib\\_threading_local.py',
   'PYMODULE'),
  ('threading',
   'c:\\users\\kalkan\\appdata\\local\\programs\\python\\python35\\lib\\threading.py',
   'PYMODULE'),
  ('selectors',
   'c:\\users\\kalkan\\appdata\\local\\programs\\python\\python35\\lib\\selectors.py',
   'PYMODULE'),
  ('_dummy_thread',
   'c:\\users\\kalkan\\appdata\\local\\programs\\python\\python35\\lib\\_dummy_thread.py',
   'PYMODULE'),
  ('dummy_threading',
   'c:\\users\\kalkan\\appdata\\local\\programs\\python\\python35\\lib\\dummy_threading.py',
   'PYMODULE'),
  ('subprocess',
   'c:\\users\\kalkan\\appdata\\local\\programs\\python\\python35\\lib\\subprocess.py',
   'PYMODULE'),
  ('os',
   'c:\\users\\kalkan\\appdata\\local\\programs\\python\\python35\\lib\\os.py',
   'PYMODULE'),
  ('token',
   'c:\\users\\kalkan\\appdata\\local\\programs\\python\\python35\\lib\\token.py',
   'PYMODULE'),
  ('copy',
   'c:\\users\\kalkan\\appdata\\local\\programs\\python\\python35\\lib\\copy.py',
   'PYMODULE'),
  ('textwrap',
   'c:\\users\\kalkan\\appdata\\local\\programs\\python\\python35\\lib\\textwrap.py',
   'PYMODULE'),
  ('struct',
   'c:\\users\\kalkan\\appdata\\local\\programs\\python\\python35\\lib\\struct.py',
   'PYMODULE'),
  ('gettext',
   'c:\\users\\kalkan\\appdata\\local\\programs\\python\\python35\\lib\\gettext.py',
   'PYMODULE'),
  ('argparse',
   'c:\\users\\kalkan\\appdata\\local\\programs\\python\\python35\\lib\\argparse.py',
   'PYMODULE'),
  ('tokenize',
   'c:\\users\\kalkan\\appdata\\local\\programs\\python\\python35\\lib\\tokenize.py',
   'PYMODULE'),
  ('cv2',
   'c:\\users\\kalkan\\appdata\\local\\programs\\python\\python35\\lib\\site-packages\\cv2\\__init__.py',
   'PYMODULE'),
  ('numbers',
   'c:\\users\\kalkan\\appdata\\local\\programs\\python\\python35\\lib\\numbers.py',
   'PYMODULE'),
  ('numpy',
   'c:\\users\\kalkan\\appdata\\local\\programs\\python\\python35\\lib\\site-packages\\numpy\\__init__.py',
   'PYMODULE'),
  ('numpy.matrixlib',
   'c:\\users\\kalkan\\appdata\\local\\programs\\python\\python35\\lib\\site-packages\\numpy\\matrixlib\\__init__.py',
   'PYMODULE'),
  ('numpy.testing.nosetester',
   'c:\\users\\kalkan\\appdata\\local\\programs\\python\\python35\\lib\\site-packages\\numpy\\testing\\nosetester.py',
   'PYMODULE'),
  ('numpy.distutils.cpuinfo',
   'c:\\users\\kalkan\\appdata\\local\\programs\\python\\python35\\lib\\site-packages\\numpy\\distutils\\cpuinfo.py',
   'PYMODULE'),
  ('numpy.distutils.compat',
   'c:\\users\\kalkan\\appdata\\local\\programs\\python\\python35\\lib\\site-packages\\numpy\\distutils\\compat.py',
   'PYMODULE'),
  ('numpy.distutils',
   'c:\\users\\kalkan\\appdata\\local\\programs\\python\\python35\\lib\\site-packages\\numpy\\distutils\\__init__.py',
   'PYMODULE'),
  ('numpy.distutils.__config__',
   'c:\\users\\kalkan\\appdata\\local\\programs\\python\\python35\\lib\\site-packages\\numpy\\distutils\\__config__.py',
   'PYMODULE'),
  ('numpy.distutils.npy_pkg_config',
   'c:\\users\\kalkan\\appdata\\local\\programs\\python\\python35\\lib\\site-packages\\numpy\\distutils\\npy_pkg_config.py',
   'PYMODULE'),
  ('configparser',
   'c:\\users\\kalkan\\appdata\\local\\programs\\python\\python35\\lib\\configparser.py',
   'PYMODULE'),
  ('numpy.distutils.info',
   'c:\\users\\kalkan\\appdata\\local\\programs\\python\\python35\\lib\\site-packages\\numpy\\distutils\\info.py',
   'PYMODULE'),
  ('numpy.distutils.unixccompiler',
   'c:\\users\\kalkan\\appdata\\local\\programs\\python\\python35\\lib\\site-packages\\numpy\\distutils\\unixccompiler.py',
   'PYMODULE'),
  ('numpy.distutils.misc_util',
   'c:\\users\\kalkan\\appdata\\local\\programs\\python\\python35\\lib\\site-packages\\numpy\\distutils\\misc_util.py',
   'PYMODULE'),
  ('distutils.core',
   'c:\\users\\kalkan\\appdata\\local\\programs\\python\\python35\\lib\\distutils\\core.py',
   'PYMODULE'),
  ('distutils.extension',
   'c:\\users\\kalkan\\appdata\\local\\programs\\python\\python35\\lib\\distutils\\extension.py',
   'PYMODULE'),
  ('distutils.config',
   'c:\\users\\kalkan\\appdata\\local\\programs\\python\\python35\\lib\\distutils\\config.py',
   'PYMODULE'),
  ('cgi',
   'c:\\users\\kalkan\\appdata\\local\\programs\\python\\python35\\lib\\cgi.py',
   'PYMODULE'),
  ('distutils.cmd',
   'c:\\users\\kalkan\\appdata\\local\\programs\\python\\python35\\lib\\distutils\\cmd.py',
   'PYMODULE'),
  ('distutils.fancy_getopt',
   'c:\\users\\kalkan\\appdata\\local\\programs\\python\\python35\\lib\\distutils\\fancy_getopt.py',
   'PYMODULE'),
  ('distutils.dist',
   'c:\\users\\kalkan\\appdata\\local\\programs\\python\\python35\\lib\\distutils\\dist.py',
   'PYMODULE'),
  ('distutils.versionpredicate',
   'c:\\users\\kalkan\\appdata\\local\\programs\\python\\python35\\lib\\distutils\\versionpredicate.py',
   'PYMODULE'),
  ('distutils.command',
   'c:\\users\\kalkan\\appdata\\local\\programs\\python\\python35\\lib\\distutils\\command\\__init__.py',
   'PYMODULE'),
  ('numpy.distutils.system_info',
   'c:\\users\\kalkan\\appdata\\local\\programs\\python\\python35\\lib\\site-packages\\numpy\\distutils\\system_info.py',
   'PYMODULE'),
  ('numpy.f2py',
   'c:\\users\\kalkan\\appdata\\local\\programs\\python\\python35\\lib\\site-packages\\numpy\\f2py\\__init__.py',
   'PYMODULE'),
  ('numpy.f2py.diagnose',
   'c:\\users\\kalkan\\appdata\\local\\programs\\python\\python35\\lib\\site-packages\\numpy\\f2py\\diagnose.py',
   'PYMODULE'),
  ('numpy.f2py.f2py_testing',
   'c:\\users\\kalkan\\appdata\\local\\programs\\python\\python35\\lib\\site-packages\\numpy\\f2py\\f2py_testing.py',
   'PYMODULE'),
  ('numpy.f2py.f2py2e',
   'c:\\users\\kalkan\\appdata\\local\\programs\\python\\python35\\lib\\site-packages\\numpy\\f2py\\f2py2e.py',
   'PYMODULE'),
  ('numpy.distutils.command.build_src',
   'c:\\users\\kalkan\\appdata\\local\\programs\\python\\python35\\lib\\site-packages\\numpy\\distutils\\command\\build_src.py',
   'PYMODULE'),
  ('numpy.distutils.command',
   'c:\\users\\kalkan\\appdata\\local\\programs\\python\\python35\\lib\\site-packages\\numpy\\distutils\\command\\__init__.py',
   'PYMODULE'),
  ('numpy.distutils.command.develop',
   'c:\\users\\kalkan\\appdata\\local\\programs\\python\\python35\\lib\\site-packages\\numpy\\distutils\\command\\develop.py',
   'PYMODULE'),
  ('setuptools.command.develop',
   'c:\\users\\kalkan\\appdata\\local\\programs\\python\\python35\\lib\\site-packages\\setuptools\\command\\develop.py',
   'PYMODULE'),
  ('setuptools.command',
   'c:\\users\\kalkan\\appdata\\local\\programs\\python\\python35\\lib\\site-packages\\setuptools\\command\\__init__.py',
   'PYMODULE'),
  ('setuptools.command.install_scripts',
   'c:\\users\\kalkan\\appdata\\local\\programs\\python\\python35\\lib\\site-packages\\setuptools\\command\\install_scripts.py',
   'PYMODULE'),
  ('distutils.command.install_scripts',
   'c:\\users\\kalkan\\appdata\\local\\programs\\python\\python35\\lib\\distutils\\command\\install_scripts.py',
   'PYMODULE'),
  ('setuptools.command.egg_info',
   'c:\\users\\kalkan\\appdata\\local\\programs\\python\\python35\\lib\\site-packages\\setuptools\\command\\egg_info.py',
   'PYMODULE'),
  ('setuptools.glob',
   'c:\\users\\kalkan\\appdata\\local\\programs\\python\\python35\\lib\\site-packages\\setuptools\\glob.py',
   'PYMODULE'),
  ('setuptools.unicode_utils',
   'c:\\users\\kalkan\\appdata\\local\\programs\\python\\python35\\lib\\site-packages\\setuptools\\unicode_utils.py',
   'PYMODULE'),
  ('setuptools.command.sdist',
   'c:\\users\\kalkan\\appdata\\local\\programs\\python\\python35\\lib\\site-packages\\setuptools\\command\\sdist.py',
   'PYMODULE'),
  ('setuptools.command.py36compat',
   'c:\\users\\kalkan\\appdata\\local\\programs\\python\\python35\\lib\\site-packages\\setuptools\\command\\py36compat.py',
   'PYMODULE'),
  ('distutils.command.sdist',
   'c:\\users\\kalkan\\appdata\\local\\programs\\python\\python35\\lib\\distutils\\command\\sdist.py',
   'PYMODULE'),
  ('setuptools.command.bdist_egg',
   'c:\\users\\kalkan\\appdata\\local\\programs\\python\\python35\\lib\\site-packages\\setuptools\\command\\bdist_egg.py',
   'PYMODULE'),
  ('setuptools.extension',
   'c:\\users\\kalkan\\appdata\\local\\programs\\python\\python35\\lib\\site-packages\\setuptools\\extension.py',
   'PYMODULE'),
  ('setuptools.monkey',
   'c:\\users\\kalkan\\appdata\\local\\programs\\python\\python35\\lib\\site-packages\\setuptools\\monkey.py',
   'PYMODULE'),
  ('setuptools.py26compat',
   'c:\\users\\kalkan\\appdata\\local\\programs\\python\\python35\\lib\\site-packages\\setuptools\\py26compat.py',
   'PYMODULE'),
  ('setuptools.command.setopt',
   'c:\\users\\kalkan\\appdata\\local\\programs\\python\\python35\\lib\\site-packages\\setuptools\\command\\setopt.py',
   'PYMODULE'),
  ('distutils.command.bdist',
   'c:\\users\\kalkan\\appdata\\local\\programs\\python\\python35\\lib\\distutils\\command\\bdist.py',
   'PYMODULE'),
  ('setuptools.namespaces',
   'c:\\users\\kalkan\\appdata\\local\\programs\\python\\python35\\lib\\site-packages\\setuptools\\namespaces.py',
   'PYMODULE'),
  ('setuptools',
   'c:\\users\\kalkan\\appdata\\local\\programs\\python\\python35\\lib\\site-packages\\setuptools\\__init__.py',
   'PYMODULE'),
  ('setuptools.msvc',
   'c:\\users\\kalkan\\appdata\\local\\programs\\python\\python35\\lib\\site-packages\\setuptools\\msvc.py',
   'PYMODULE'),
  ('distutils.msvc9compiler',
   'c:\\users\\kalkan\\appdata\\local\\programs\\python\\python35\\lib\\distutils\\msvc9compiler.py',
   'PYMODULE'),
  ('setuptools.depends',
   'c:\\users\\kalkan\\appdata\\local\\programs\\python\\python35\\lib\\site-packages\\setuptools\\depends.py',
   'PYMODULE'),
  ('setuptools.py33compat',
   'c:\\users\\kalkan\\appdata\\local\\programs\\python\\python35\\lib\\site-packages\\setuptools\\py33compat.py',
   'PYMODULE'),
  ('setuptools.dist',
   'c:\\users\\kalkan\\appdata\\local\\programs\\python\\python35\\lib\\site-packages\\setuptools\\dist.py',
   'PYMODULE'),
  ('setuptools.py36compat',
   'c:\\users\\kalkan\\appdata\\local\\programs\\python\\python35\\lib\\site-packages\\setuptools\\py36compat.py',
   'PYMODULE'),
  ('setuptools.config',
   'c:\\users\\kalkan\\appdata\\local\\programs\\python\\python35\\lib\\site-packages\\setuptools\\config.py',
   'PYMODULE'),
  ('setuptools.ssl_support',
   'c:\\users\\kalkan\\appdata\\local\\programs\\python\\python35\\lib\\site-packages\\setuptools\\ssl_support.py',
   'PYMODULE'),
  ('setuptools.windows_support',
   'c:\\users\\kalkan\\appdata\\local\\programs\\python\\python35\\lib\\site-packages\\setuptools\\windows_support.py',
   'PYMODULE'),
  ('setuptools.version',
   'c:\\users\\kalkan\\appdata\\local\\programs\\python\\python35\\lib\\site-packages\\setuptools\\version.py',
   'PYMODULE'),
  ('setuptools.command.easy_install',
   'c:\\users\\kalkan\\appdata\\local\\programs\\python\\python35\\lib\\site-packages\\setuptools\\command\\easy_install.py',
   'PYMODULE'),
  ('setuptools.package_index',
   'c:\\users\\kalkan\\appdata\\local\\programs\\python\\python35\\lib\\site-packages\\setuptools\\package_index.py',
   'PYMODULE'),
  ('setuptools.archive_util',
   'c:\\users\\kalkan\\appdata\\local\\programs\\python\\python35\\lib\\site-packages\\setuptools\\archive_util.py',
   'PYMODULE'),
  ('setuptools.py27compat',
   'c:\\users\\kalkan\\appdata\\local\\programs\\python\\python35\\lib\\site-packages\\setuptools\\py27compat.py',
   'PYMODULE'),
  ('setuptools.py31compat',
   'c:\\users\\kalkan\\appdata\\local\\programs\\python\\python35\\lib\\site-packages\\setuptools\\py31compat.py',
   'PYMODULE'),
  ('setuptools.sandbox',
   'c:\\users\\kalkan\\appdata\\local\\programs\\python\\python35\\lib\\site-packages\\setuptools\\sandbox.py',
   'PYMODULE'),
  ('distutils.command.build_scripts',
   'c:\\users\\kalkan\\appdata\\local\\programs\\python\\python35\\lib\\distutils\\command\\build_scripts.py',
   'PYMODULE'),
  ('distutils.command.install',
   'c:\\users\\kalkan\\appdata\\local\\programs\\python\\python35\\lib\\distutils\\command\\install.py',
   'PYMODULE'),
  ('setuptools.extern',
   'c:\\users\\kalkan\\appdata\\local\\programs\\python\\python35\\lib\\site-packages\\setuptools\\extern\\__init__.py',
   'PYMODULE'),
  ('numpy.distutils.command.egg_info',
   'c:\\users\\kalkan\\appdata\\local\\programs\\python\\python35\\lib\\site-packages\\numpy\\distutils\\command\\egg_info.py',
   'PYMODULE'),
  ('numpy.distutils.command.build_clib',
   'c:\\users\\kalkan\\appdata\\local\\programs\\python\\python35\\lib\\site-packages\\numpy\\distutils\\command\\build_clib.py',
   'PYMODULE'),
  ('distutils.command.build_clib',
   'c:\\users\\kalkan\\appdata\\local\\programs\\python\\python35\\lib\\distutils\\command\\build_clib.py',
   'PYMODULE'),
  ('numpy.distutils.command.bdist_rpm',
   'c:\\users\\kalkan\\appdata\\local\\programs\\python\\python35\\lib\\site-packages\\numpy\\distutils\\command\\bdist_rpm.py',
   'PYMODULE'),
  ('distutils.command.bdist_rpm',
   'c:\\users\\kalkan\\appdata\\local\\programs\\python\\python35\\lib\\distutils\\command\\bdist_rpm.py',
   'PYMODULE'),
  ('setuptools.command.bdist_rpm',
   'c:\\users\\kalkan\\appdata\\local\\programs\\python\\python35\\lib\\site-packages\\setuptools\\command\\bdist_rpm.py',
   'PYMODULE'),
  ('numpy.distutils.command.build_ext',
   'c:\\users\\kalkan\\appdata\\local\\programs\\python\\python35\\lib\\site-packages\\numpy\\distutils\\command\\build_ext.py',
   'PYMODULE'),
  ('numpy.distutils.command.config_compiler',
   'c:\\users\\kalkan\\appdata\\local\\programs\\python\\python35\\lib\\site-packages\\numpy\\distutils\\command\\config_compiler.py',
   'PYMODULE'),
  ('numpy.distutils.command.build',
   'c:\\users\\kalkan\\appdata\\local\\programs\\python\\python35\\lib\\site-packages\\numpy\\distutils\\command\\build.py',
   'PYMODULE'),
  ('distutils.command.build',
   'c:\\users\\kalkan\\appdata\\local\\programs\\python\\python35\\lib\\distutils\\command\\build.py',
   'PYMODULE'),
  ('numpy.distutils.command.install_clib',
   'c:\\users\\kalkan\\appdata\\local\\programs\\python\\python35\\lib\\site-packages\\numpy\\distutils\\command\\install_clib.py',
   'PYMODULE'),
  ('numpy.distutils.command.install_headers',
   'c:\\users\\kalkan\\appdata\\local\\programs\\python\\python35\\lib\\site-packages\\numpy\\distutils\\command\\install_headers.py',
   'PYMODULE'),
  ('distutils.command.install_headers',
   'c:\\users\\kalkan\\appdata\\local\\programs\\python\\python35\\lib\\distutils\\command\\install_headers.py',
   'PYMODULE'),
  ('numpy.distutils.command.build_scripts',
   'c:\\users\\kalkan\\appdata\\local\\programs\\python\\python35\\lib\\site-packages\\numpy\\distutils\\command\\build_scripts.py',
   'PYMODULE'),
  ('numpy.distutils.command.install',
   'c:\\users\\kalkan\\appdata\\local\\programs\\python\\python35\\lib\\site-packages\\numpy\\distutils\\command\\install.py',
   'PYMODULE'),
  ('setuptools.command.install',
   'c:\\users\\kalkan\\appdata\\local\\programs\\python\\python35\\lib\\site-packages\\setuptools\\command\\install.py',
   'PYMODULE'),
  ('numpy.distutils.command.install_data',
   'c:\\users\\kalkan\\appdata\\local\\programs\\python\\python35\\lib\\site-packages\\numpy\\distutils\\command\\install_data.py',
   'PYMODULE'),
  ('distutils.command.install_data',
   'c:\\users\\kalkan\\appdata\\local\\programs\\python\\python35\\lib\\distutils\\command\\install_data.py',
   'PYMODULE'),
  ('numpy.distutils.command.build_py',
   'c:\\users\\kalkan\\appdata\\local\\programs\\python\\python35\\lib\\site-packages\\numpy\\distutils\\command\\build_py.py',
   'PYMODULE'),
  ('distutils.command.build_py',
   'c:\\users\\kalkan\\appdata\\local\\programs\\python\\python35\\lib\\distutils\\command\\build_py.py',
   'PYMODULE'),
  ('numpy.distutils.command.sdist',
   'c:\\users\\kalkan\\appdata\\local\\programs\\python\\python35\\lib\\site-packages\\numpy\\distutils\\command\\sdist.py',
   'PYMODULE'),
  ('numpy.distutils.conv_template',
   'c:\\users\\kalkan\\appdata\\local\\programs\\python\\python35\\lib\\site-packages\\numpy\\distutils\\conv_template.py',
   'PYMODULE'),
  ('numpy.distutils.from_template',
   'c:\\users\\kalkan\\appdata\\local\\programs\\python\\python35\\lib\\site-packages\\numpy\\distutils\\from_template.py',
   'PYMODULE'),
  ('distutils.command.build_ext',
   'c:\\users\\kalkan\\appdata\\local\\programs\\python\\python35\\lib\\distutils\\command\\build_ext.py',
   'PYMODULE'),
  ('distutils._msvccompiler',
   'c:\\users\\kalkan\\appdata\\local\\programs\\python\\python35\\lib\\distutils\\_msvccompiler.py',
   'PYMODULE'),
  ('concurrent.futures',
   'c:\\users\\kalkan\\appdata\\local\\programs\\python\\python35\\lib\\concurrent\\futures\\__init__.py',
   'PYMODULE'),
  ('concurrent.futures.thread',
   'c:\\users\\kalkan\\appdata\\local\\programs\\python\\python35\\lib\\concurrent\\futures\\thread.py',
   'PYMODULE'),
  ('concurrent.futures.process',
   'c:\\users\\kalkan\\appdata\\local\\programs\\python\\python35\\lib\\concurrent\\futures\\process.py',
   'PYMODULE'),
  ('concurrent.futures._base',
   'c:\\users\\kalkan\\appdata\\local\\programs\\python\\python35\\lib\\concurrent\\futures\\_base.py',
   'PYMODULE'),
  ('concurrent',
   'c:\\users\\kalkan\\appdata\\local\\programs\\python\\python35\\lib\\concurrent\\__init__.py',
   'PYMODULE'),
  ('numpy.f2py.auxfuncs',
   'c:\\users\\kalkan\\appdata\\local\\programs\\python\\python35\\lib\\site-packages\\numpy\\f2py\\auxfuncs.py',
   'PYMODULE'),
  ('numpy.f2py.f90mod_rules',
   'c:\\users\\kalkan\\appdata\\local\\programs\\python\\python35\\lib\\site-packages\\numpy\\f2py\\f90mod_rules.py',
   'PYMODULE'),
  ('numpy.f2py.rules',
   'c:\\users\\kalkan\\appdata\\local\\programs\\python\\python35\\lib\\site-packages\\numpy\\f2py\\rules.py',
   'PYMODULE'),
  ('numpy.f2py.use_rules',
   'c:\\users\\kalkan\\appdata\\local\\programs\\python\\python35\\lib\\site-packages\\numpy\\f2py\\use_rules.py',
   'PYMODULE'),
  ('numpy.f2py.common_rules',
   'c:\\users\\kalkan\\appdata\\local\\programs\\python\\python35\\lib\\site-packages\\numpy\\f2py\\common_rules.py',
   'PYMODULE'),
  ('numpy.f2py.func2subr',
   'c:\\users\\kalkan\\appdata\\local\\programs\\python\\python35\\lib\\site-packages\\numpy\\f2py\\func2subr.py',
   'PYMODULE'),
  ('numpy.f2py.crackfortran',
   'c:\\users\\kalkan\\appdata\\local\\programs\\python\\python35\\lib\\site-packages\\numpy\\f2py\\crackfortran.py',
   'PYMODULE'),
  ('fileinput',
   'c:\\users\\kalkan\\appdata\\local\\programs\\python\\python35\\lib\\fileinput.py',
   'PYMODULE'),
  ('numpy.f2py.cb_rules',
   'c:\\users\\kalkan\\appdata\\local\\programs\\python\\python35\\lib\\site-packages\\numpy\\f2py\\cb_rules.py',
   'PYMODULE'),
  ('numpy.f2py.capi_maps',
   'c:\\users\\kalkan\\appdata\\local\\programs\\python\\python35\\lib\\site-packages\\numpy\\f2py\\capi_maps.py',
   'PYMODULE'),
  ('numpy.f2py.cfuncs',
   'c:\\users\\kalkan\\appdata\\local\\programs\\python\\python35\\lib\\site-packages\\numpy\\f2py\\cfuncs.py',
   'PYMODULE'),
  ('numpy.f2py.__version__',
   'c:\\users\\kalkan\\appdata\\local\\programs\\python\\python35\\lib\\site-packages\\numpy\\f2py\\__version__.py',
   'PYMODULE'),
  ('distutils.ccompiler',
   'c:\\users\\kalkan\\appdata\\local\\programs\\python\\python35\\lib\\distutils\\ccompiler.py',
   'PYMODULE'),
  ('numpy.distutils.command.config',
   'c:\\users\\kalkan\\appdata\\local\\programs\\python\\python35\\lib\\site-packages\\numpy\\distutils\\command\\config.py',
   'PYMODULE'),
  ('numpy.distutils.command.autodist',
   'c:\\users\\kalkan\\appdata\\local\\programs\\python\\python35\\lib\\site-packages\\numpy\\distutils\\command\\autodist.py',
   'PYMODULE'),
  ('numpy.distutils.mingw32ccompiler',
   'c:\\users\\kalkan\\appdata\\local\\programs\\python\\python35\\lib\\site-packages\\numpy\\distutils\\mingw32ccompiler.py',
   'PYMODULE'),
  ('distutils.cygwinccompiler',
   'c:\\users\\kalkan\\appdata\\local\\programs\\python\\python35\\lib\\distutils\\cygwinccompiler.py',
   'PYMODULE'),
  ('distutils.command.config',
   'c:\\users\\kalkan\\appdata\\local\\programs\\python\\python35\\lib\\distutils\\command\\config.py',
   'PYMODULE'),
  ('numpy.distutils.exec_command',
   'c:\\users\\kalkan\\appdata\\local\\programs\\python\\python35\\lib\\site-packages\\numpy\\distutils\\exec_command.py',
   'PYMODULE'),
  ('curses',
   'c:\\users\\kalkan\\appdata\\local\\programs\\python\\python35\\lib\\curses\\__init__.py',
   'PYMODULE'),
  ('curses.has_key',
   'c:\\users\\kalkan\\appdata\\local\\programs\\python\\python35\\lib\\curses\\has_key.py',
   'PYMODULE'),
  ('numpy.distutils.core',
   'c:\\users\\kalkan\\appdata\\local\\programs\\python\\python35\\lib\\site-packages\\numpy\\distutils\\core.py',
   'PYMODULE'),
  ('numpy.distutils.numpy_distribution',
   'c:\\users\\kalkan\\appdata\\local\\programs\\python\\python35\\lib\\site-packages\\numpy\\distutils\\numpy_distribution.py',
   'PYMODULE'),
  ('numpy.distutils.extension',
   'c:\\users\\kalkan\\appdata\\local\\programs\\python\\python35\\lib\\site-packages\\numpy\\distutils\\extension.py',
   'PYMODULE'),
  ('distutils.msvccompiler',
   'c:\\users\\kalkan\\appdata\\local\\programs\\python\\python35\\lib\\distutils\\msvccompiler.py',
   'PYMODULE'),
  ('distutils.unixccompiler',
   'c:\\users\\kalkan\\appdata\\local\\programs\\python\\python35\\lib\\distutils\\unixccompiler.py',
   'PYMODULE'),
  ('numpy.distutils.ccompiler',
   'c:\\users\\kalkan\\appdata\\local\\programs\\python\\python35\\lib\\site-packages\\numpy\\distutils\\ccompiler.py',
   'PYMODULE'),
  ('numpy.distutils.lib2def',
   'c:\\users\\kalkan\\appdata\\local\\programs\\python\\python35\\lib\\site-packages\\numpy\\distutils\\lib2def.py',
   'PYMODULE'),
  ('numpy.distutils.fcompiler',
   'c:\\users\\kalkan\\appdata\\local\\programs\\python\\python35\\lib\\site-packages\\numpy\\distutils\\fcompiler\\__init__.py',
   'PYMODULE'),
  ('numpy.distutils.environment',
   'c:\\users\\kalkan\\appdata\\local\\programs\\python\\python35\\lib\\site-packages\\numpy\\distutils\\environment.py',
   'PYMODULE'),
  ('numpy.distutils.log',
   'c:\\users\\kalkan\\appdata\\local\\programs\\python\\python35\\lib\\site-packages\\numpy\\distutils\\log.py',
   'PYMODULE'),
  ('numpy.distutils.__version__',
   'c:\\users\\kalkan\\appdata\\local\\programs\\python\\python35\\lib\\site-packages\\numpy\\distutils\\__version__.py',
   'PYMODULE'),
  ('scipy',
   'c:\\users\\kalkan\\appdata\\local\\programs\\python\\python35\\lib\\site-packages\\scipy\\__init__.py',
   'PYMODULE'),
  ('scipy._lib._testutils',
   'c:\\users\\kalkan\\appdata\\local\\programs\\python\\python35\\lib\\site-packages\\scipy\\_lib\\_testutils.py',
   'PYMODULE'),
  ('scipy._lib',
   'c:\\users\\kalkan\\appdata\\local\\programs\\python\\python35\\lib\\site-packages\\scipy\\_lib\\__init__.py',
   'PYMODULE'),
  ('scipy._lib._ccallback',
   'c:\\users\\kalkan\\appdata\\local\\programs\\python\\python35\\lib\\site-packages\\scipy\\_lib\\_ccallback.py',
   'PYMODULE'),
  ('cffi',
   'c:\\users\\kalkan\\appdata\\local\\programs\\python\\python35\\lib\\site-packages\\cffi\\__init__.py',
   'PYMODULE'),
  ('cffi.error',
   'c:\\users\\kalkan\\appdata\\local\\programs\\python\\python35\\lib\\site-packages\\cffi\\error.py',
   'PYMODULE'),
  ('cffi.api',
   'c:\\users\\kalkan\\appdata\\local\\programs\\python\\python35\\lib\\site-packages\\cffi\\api.py',
   'PYMODULE'),
  ('cffi.recompiler',
   'c:\\users\\kalkan\\appdata\\local\\programs\\python\\python35\\lib\\site-packages\\cffi\\recompiler.py',
   'PYMODULE'),
  ('cffi.cffi_opcode',
   'c:\\users\\kalkan\\appdata\\local\\programs\\python\\python35\\lib\\site-packages\\cffi\\cffi_opcode.py',
   'PYMODULE'),
  ('cffi.verifier',
   'c:\\users\\kalkan\\appdata\\local\\programs\\python\\python35\\lib\\site-packages\\cffi\\verifier.py',
   'PYMODULE'),
  ('cffi.lock',
   'c:\\users\\kalkan\\appdata\\local\\programs\\python\\python35\\lib\\site-packages\\cffi\\lock.py',
   'PYMODULE'),
  ('cffi.vengine_cpy',
   'c:\\users\\kalkan\\appdata\\local\\programs\\python\\python35\\lib\\site-packages\\cffi\\vengine_cpy.py',
   'PYMODULE'),
  ('cffi.vengine_gen',
   'c:\\users\\kalkan\\appdata\\local\\programs\\python\\python35\\lib\\site-packages\\cffi\\vengine_gen.py',
   'PYMODULE'),
  ('cffi.ffiplatform',
   'c:\\users\\kalkan\\appdata\\local\\programs\\python\\python35\\lib\\site-packages\\cffi\\ffiplatform.py',
   'PYMODULE'),
  ('cffi.cparser',
   'c:\\users\\kalkan\\appdata\\local\\programs\\python\\python35\\lib\\site-packages\\cffi\\cparser.py',
   'PYMODULE'),
  ('pycparser',
   'c:\\users\\kalkan\\appdata\\local\\programs\\python\\python35\\lib\\site-packages\\pycparser\\__init__.py',
   'PYMODULE'),
  ('pycparser.yacctab',
   'c:\\users\\kalkan\\appdata\\local\\programs\\python\\python35\\lib\\site-packages\\pycparser\\yacctab.py',
   'PYMODULE'),
  ('pycparser.lextab',
   'c:\\users\\kalkan\\appdata\\local\\programs\\python\\python35\\lib\\site-packages\\pycparser\\lextab.py',
   'PYMODULE'),
  ('pycparser.c_parser',
   'c:\\users\\kalkan\\appdata\\local\\programs\\python\\python35\\lib\\site-packages\\pycparser\\c_parser.py',
   'PYMODULE'),
  ('pycparser.ast_transforms',
   'c:\\users\\kalkan\\appdata\\local\\programs\\python\\python35\\lib\\site-packages\\pycparser\\ast_transforms.py',
   'PYMODULE'),
  ('pycparser.plyparser',
   'c:\\users\\kalkan\\appdata\\local\\programs\\python\\python35\\lib\\site-packages\\pycparser\\plyparser.py',
   'PYMODULE'),
  ('pycparser.c_lexer',
   'c:\\users\\kalkan\\appdata\\local\\programs\\python\\python35\\lib\\site-packages\\pycparser\\c_lexer.py',
   'PYMODULE'),
  ('pycparser.ply.lex',
   'c:\\users\\kalkan\\appdata\\local\\programs\\python\\python35\\lib\\site-packages\\pycparser\\ply\\lex.py',
   'PYMODULE'),
  ('pycparser.ply.yacc',
   'c:\\users\\kalkan\\appdata\\local\\programs\\python\\python35\\lib\\site-packages\\pycparser\\ply\\yacc.py',
   'PYMODULE'),
  ('pycparser.ply',
   'c:\\users\\kalkan\\appdata\\local\\programs\\python\\python35\\lib\\site-packages\\pycparser\\ply\\__init__.py',
   'PYMODULE'),
  ('pycparser.c_ast',
   'c:\\users\\kalkan\\appdata\\local\\programs\\python\\python35\\lib\\site-packages\\pycparser\\c_ast.py',
   'PYMODULE'),
  ('cffi.commontypes',
   'c:\\users\\kalkan\\appdata\\local\\programs\\python\\python35\\lib\\site-packages\\cffi\\commontypes.py',
   'PYMODULE'),
  ('cffi.model',
   'c:\\users\\kalkan\\appdata\\local\\programs\\python\\python35\\lib\\site-packages\\cffi\\model.py',
   'PYMODULE'),
  ('scipy._lib._version',
   'c:\\users\\kalkan\\appdata\\local\\programs\\python\\python35\\lib\\site-packages\\scipy\\_lib\\_version.py',
   'PYMODULE'),
  ('scipy._lib.six',
   'c:\\users\\kalkan\\appdata\\local\\programs\\python\\python35\\lib\\site-packages\\scipy\\_lib\\six.py',
   'PYMODULE'),
  ('scipy.version',
   'c:\\users\\kalkan\\appdata\\local\\programs\\python\\python35\\lib\\site-packages\\scipy\\version.py',
   'PYMODULE'),
  ('scipy.__config__',
   'c:\\users\\kalkan\\appdata\\local\\programs\\python\\python35\\lib\\site-packages\\scipy\\__config__.py',
   'PYMODULE'),
  ('scipy._distributor_init',
   'c:\\users\\kalkan\\appdata\\local\\programs\\python\\python35\\lib\\site-packages\\scipy\\_distributor_init.py',
   'PYMODULE'),
  ('numpy.lib.scimath',
   'c:\\users\\kalkan\\appdata\\local\\programs\\python\\python35\\lib\\site-packages\\numpy\\lib\\scimath.py',
   'PYMODULE'),
  ('numpy.lib.type_check',
   'c:\\users\\kalkan\\appdata\\local\\programs\\python\\python35\\lib\\site-packages\\numpy\\lib\\type_check.py',
   'PYMODULE'),
  ('numpy.core.getlimits',
   'c:\\users\\kalkan\\appdata\\local\\programs\\python\\python35\\lib\\site-packages\\numpy\\core\\getlimits.py',
   'PYMODULE'),
  ('numpy.core.machar',
   'c:\\users\\kalkan\\appdata\\local\\programs\\python\\python35\\lib\\site-packages\\numpy\\core\\machar.py',
   'PYMODULE'),
  ('numpy.core.fromnumeric',
   'c:\\users\\kalkan\\appdata\\local\\programs\\python\\python35\\lib\\site-packages\\numpy\\core\\fromnumeric.py',
   'PYMODULE'),
  ('numpy.core._methods',
   'c:\\users\\kalkan\\appdata\\local\\programs\\python\\python35\\lib\\site-packages\\numpy\\core\\_methods.py',
   'PYMODULE'),
  ('numpy.lib.ufunclike',
   'c:\\users\\kalkan\\appdata\\local\\programs\\python\\python35\\lib\\site-packages\\numpy\\lib\\ufunclike.py',
   'PYMODULE'),
  ('numpy.core.numerictypes',
   'c:\\users\\kalkan\\appdata\\local\\programs\\python\\python35\\lib\\site-packages\\numpy\\core\\numerictypes.py',
   'PYMODULE'),
  ('numpy.core.numeric',
   'c:\\users\\kalkan\\appdata\\local\\programs\\python\\python35\\lib\\site-packages\\numpy\\core\\numeric.py',
   'PYMODULE'),
  ('numpy.core.arrayprint',
   'c:\\users\\kalkan\\appdata\\local\\programs\\python\\python35\\lib\\site-packages\\numpy\\core\\arrayprint.py',
   'PYMODULE'),
  ('numpy.core._internal',
   'c:\\users\\kalkan\\appdata\\local\\programs\\python\\python35\\lib\\site-packages\\numpy\\core\\_internal.py',
   'PYMODULE'),
  ('numpy.testing.noseclasses',
   'c:\\users\\kalkan\\appdata\\local\\programs\\python\\python35\\lib\\site-packages\\numpy\\testing\\noseclasses.py',
   'PYMODULE'),
  ('numpy.testing.utils',
   'c:\\users\\kalkan\\appdata\\local\\programs\\python\\python35\\lib\\site-packages\\numpy\\testing\\utils.py',
   'PYMODULE'),
  ('numpy.lib.utils',
   'c:\\users\\kalkan\\appdata\\local\\programs\\python\\python35\\lib\\site-packages\\numpy\\lib\\utils.py',
   'PYMODULE'),
  ('numpy.matrixlib.defmatrix',
   'c:\\users\\kalkan\\appdata\\local\\programs\\python\\python35\\lib\\site-packages\\numpy\\matrixlib\\defmatrix.py',
   'PYMODULE'),
  ('numpy.dual',
   'c:\\users\\kalkan\\appdata\\local\\programs\\python\\python35\\lib\\site-packages\\numpy\\dual.py',
   'PYMODULE'),
  ('numpy.ma',
   'c:\\users\\kalkan\\appdata\\local\\programs\\python\\python35\\lib\\site-packages\\numpy\\ma\\__init__.py',
   'PYMODULE'),
  ('numpy.ma.extras',
   'c:\\users\\kalkan\\appdata\\local\\programs\\python\\python35\\lib\\site-packages\\numpy\\ma\\extras.py',
   'PYMODULE'),
  ('numpy.lib.index_tricks',
   'c:\\users\\kalkan\\appdata\\local\\programs\\python\\python35\\lib\\site-packages\\numpy\\lib\\index_tricks.py',
   'PYMODULE'),
  ('numpy.lib.stride_tricks',
   'c:\\users\\kalkan\\appdata\\local\\programs\\python\\python35\\lib\\site-packages\\numpy\\lib\\stride_tricks.py',
   'PYMODULE'),
  ('numpy.lib.function_base',
   'c:\\users\\kalkan\\appdata\\local\\programs\\python\\python35\\lib\\site-packages\\numpy\\lib\\function_base.py',
   'PYMODULE'),
  ('numpy.compat.py3k',
   'c:\\users\\kalkan\\appdata\\local\\programs\\python\\python35\\lib\\site-packages\\numpy\\compat\\py3k.py',
   'PYMODULE'),
  ('pathlib',
   'c:\\users\\kalkan\\appdata\\local\\programs\\python\\python35\\lib\\pathlib.py',
   'PYMODULE'),
  ('numpy.lib.twodim_base',
   'c:\\users\\kalkan\\appdata\\local\\programs\\python\\python35\\lib\\site-packages\\numpy\\lib\\twodim_base.py',
   'PYMODULE'),
  ('numpy.ma.core',
   'c:\\users\\kalkan\\appdata\\local\\programs\\python\\python35\\lib\\site-packages\\numpy\\ma\\core.py',
   'PYMODULE'),
  ('numpy.ctypeslib',
   'c:\\users\\kalkan\\appdata\\local\\programs\\python\\python35\\lib\\site-packages\\numpy\\ctypeslib.py',
   'PYMODULE'),
  ('numpy.random',
   'c:\\users\\kalkan\\appdata\\local\\programs\\python\\python35\\lib\\site-packages\\numpy\\random\\__init__.py',
   'PYMODULE'),
  ('numpy.random.info',
   'c:\\users\\kalkan\\appdata\\local\\programs\\python\\python35\\lib\\site-packages\\numpy\\random\\info.py',
   'PYMODULE'),
  ('numpy.polynomial',
   'c:\\users\\kalkan\\appdata\\local\\programs\\python\\python35\\lib\\site-packages\\numpy\\polynomial\\__init__.py',
   'PYMODULE'),
  ('numpy.polynomial.laguerre',
   'c:\\users\\kalkan\\appdata\\local\\programs\\python\\python35\\lib\\site-packages\\numpy\\polynomial\\laguerre.py',
   'PYMODULE'),
  ('numpy.polynomial._polybase',
   'c:\\users\\kalkan\\appdata\\local\\programs\\python\\python35\\lib\\site-packages\\numpy\\polynomial\\_polybase.py',
   'PYMODULE'),
  ('numpy.polynomial.hermite_e',
   'c:\\users\\kalkan\\appdata\\local\\programs\\python\\python35\\lib\\site-packages\\numpy\\polynomial\\hermite_e.py',
   'PYMODULE'),
  ('numpy.polynomial.hermite',
   'c:\\users\\kalkan\\appdata\\local\\programs\\python\\python35\\lib\\site-packages\\numpy\\polynomial\\hermite.py',
   'PYMODULE'),
  ('numpy.polynomial.legendre',
   'c:\\users\\kalkan\\appdata\\local\\programs\\python\\python35\\lib\\site-packages\\numpy\\polynomial\\legendre.py',
   'PYMODULE'),
  ('numpy.polynomial.chebyshev',
   'c:\\users\\kalkan\\appdata\\local\\programs\\python\\python35\\lib\\site-packages\\numpy\\polynomial\\chebyshev.py',
   'PYMODULE'),
  ('numpy.polynomial.polynomial',
   'c:\\users\\kalkan\\appdata\\local\\programs\\python\\python35\\lib\\site-packages\\numpy\\polynomial\\polynomial.py',
   'PYMODULE'),
  ('numpy.polynomial.polyutils',
   'c:\\users\\kalkan\\appdata\\local\\programs\\python\\python35\\lib\\site-packages\\numpy\\polynomial\\polyutils.py',
   'PYMODULE'),
  ('numpy.fft',
   'c:\\users\\kalkan\\appdata\\local\\programs\\python\\python35\\lib\\site-packages\\numpy\\fft\\__init__.py',
   'PYMODULE'),
  ('numpy.fft.helper',
   'c:\\users\\kalkan\\appdata\\local\\programs\\python\\python35\\lib\\site-packages\\numpy\\fft\\helper.py',
   'PYMODULE'),
  ('numpy.fft.fftpack',
   'c:\\users\\kalkan\\appdata\\local\\programs\\python\\python35\\lib\\site-packages\\numpy\\fft\\fftpack.py',
   'PYMODULE'),
  ('numpy.fft.info',
   'c:\\users\\kalkan\\appdata\\local\\programs\\python\\python35\\lib\\site-packages\\numpy\\fft\\info.py',
   'PYMODULE'),
  ('numpy.linalg',
   'c:\\users\\kalkan\\appdata\\local\\programs\\python\\python35\\lib\\site-packages\\numpy\\linalg\\__init__.py',
   'PYMODULE'),
  ('numpy.linalg.linalg',
   'c:\\users\\kalkan\\appdata\\local\\programs\\python\\python35\\lib\\site-packages\\numpy\\linalg\\linalg.py',
   'PYMODULE'),
  ('numpy.linalg.info',
   'c:\\users\\kalkan\\appdata\\local\\programs\\python\\python35\\lib\\site-packages\\numpy\\linalg\\info.py',
   'PYMODULE'),
  ('numpy.lib',
   'c:\\users\\kalkan\\appdata\\local\\programs\\python\\python35\\lib\\site-packages\\numpy\\lib\\__init__.py',
   'PYMODULE'),
  ('numpy.lib._version',
   'c:\\users\\kalkan\\appdata\\local\\programs\\python\\python35\\lib\\site-packages\\numpy\\lib\\_version.py',
   'PYMODULE'),
  ('numpy.lib.arraypad',
   'c:\\users\\kalkan\\appdata\\local\\programs\\python\\python35\\lib\\site-packages\\numpy\\lib\\arraypad.py',
   'PYMODULE'),
  ('numpy.lib.arrayterator',
   'c:\\users\\kalkan\\appdata\\local\\programs\\python\\python35\\lib\\site-packages\\numpy\\lib\\arrayterator.py',
   'PYMODULE'),
  ('numpy.lib.financial',
   'c:\\users\\kalkan\\appdata\\local\\programs\\python\\python35\\lib\\site-packages\\numpy\\lib\\financial.py',
   'PYMODULE'),
  ('numpy.lib.npyio',
   'c:\\users\\kalkan\\appdata\\local\\programs\\python\\python35\\lib\\site-packages\\numpy\\lib\\npyio.py',
   'PYMODULE'),
  ('numpy.ma.mrecords',
   'c:\\users\\kalkan\\appdata\\local\\programs\\python\\python35\\lib\\site-packages\\numpy\\ma\\mrecords.py',
   'PYMODULE'),
  ('numpy.core.records',
   'c:\\users\\kalkan\\appdata\\local\\programs\\python\\python35\\lib\\site-packages\\numpy\\core\\records.py',
   'PYMODULE'),
  ('numpy.lib._iotools',
   'c:\\users\\kalkan\\appdata\\local\\programs\\python\\python35\\lib\\site-packages\\numpy\\lib\\_iotools.py',
   'PYMODULE'),
  ('numpy.lib._datasource',
   'c:\\users\\kalkan\\appdata\\local\\programs\\python\\python35\\lib\\site-packages\\numpy\\lib\\_datasource.py',
   'PYMODULE'),
  ('numpy.lib.format',
   'c:\\users\\kalkan\\appdata\\local\\programs\\python\\python35\\lib\\site-packages\\numpy\\lib\\format.py',
   'PYMODULE'),
  ('numpy.lib.arraysetops',
   'c:\\users\\kalkan\\appdata\\local\\programs\\python\\python35\\lib\\site-packages\\numpy\\lib\\arraysetops.py',
   'PYMODULE'),
  ('numpy.lib.polynomial',
   'c:\\users\\kalkan\\appdata\\local\\programs\\python\\python35\\lib\\site-packages\\numpy\\lib\\polynomial.py',
   'PYMODULE'),
  ('numpy.lib.shape_base',
   'c:\\users\\kalkan\\appdata\\local\\programs\\python\\python35\\lib\\site-packages\\numpy\\lib\\shape_base.py',
   'PYMODULE'),
  ('numpy.lib.nanfunctions',
   'c:\\users\\kalkan\\appdata\\local\\programs\\python\\python35\\lib\\site-packages\\numpy\\lib\\nanfunctions.py',
   'PYMODULE'),
  ('numpy.lib.mixins',
   'c:\\users\\kalkan\\appdata\\local\\programs\\python\\python35\\lib\\site-packages\\numpy\\lib\\mixins.py',
   'PYMODULE'),
  ('numpy.lib.info',
   'c:\\users\\kalkan\\appdata\\local\\programs\\python\\python35\\lib\\site-packages\\numpy\\lib\\info.py',
   'PYMODULE'),
  ('numpy.compat',
   'c:\\users\\kalkan\\appdata\\local\\programs\\python\\python35\\lib\\site-packages\\numpy\\compat\\__init__.py',
   'PYMODULE'),
  ('numpy.compat._inspect',
   'c:\\users\\kalkan\\appdata\\local\\programs\\python\\python35\\lib\\site-packages\\numpy\\compat\\_inspect.py',
   'PYMODULE'),
  ('numpy.core',
   'c:\\users\\kalkan\\appdata\\local\\programs\\python\\python35\\lib\\site-packages\\numpy\\core\\__init__.py',
   'PYMODULE'),
  ('numpy.core.einsumfunc',
   'c:\\users\\kalkan\\appdata\\local\\programs\\python\\python35\\lib\\site-packages\\numpy\\core\\einsumfunc.py',
   'PYMODULE'),
  ('numpy.core.shape_base',
   'c:\\users\\kalkan\\appdata\\local\\programs\\python\\python35\\lib\\site-packages\\numpy\\core\\shape_base.py',
   'PYMODULE'),
  ('numpy.core.function_base',
   'c:\\users\\kalkan\\appdata\\local\\programs\\python\\python35\\lib\\site-packages\\numpy\\core\\function_base.py',
   'PYMODULE'),
  ('numpy.core.memmap',
   'c:\\users\\kalkan\\appdata\\local\\programs\\python\\python35\\lib\\site-packages\\numpy\\core\\memmap.py',
   'PYMODULE'),
  ('numpy.core.defchararray',
   'c:\\users\\kalkan\\appdata\\local\\programs\\python\\python35\\lib\\site-packages\\numpy\\core\\defchararray.py',
   'PYMODULE'),
  ('numpy.core.info',
   'c:\\users\\kalkan\\appdata\\local\\programs\\python\\python35\\lib\\site-packages\\numpy\\core\\info.py',
   'PYMODULE'),
  ('numpy._distributor_init',
   'c:\\users\\kalkan\\appdata\\local\\programs\\python\\python35\\lib\\site-packages\\numpy\\_distributor_init.py',
   'PYMODULE'),
  ('numpy.testing',
   'c:\\users\\kalkan\\appdata\\local\\programs\\python\\python35\\lib\\site-packages\\numpy\\testing\\__init__.py',
   'PYMODULE'),
  ('numpy.testing.decorators',
   'c:\\users\\kalkan\\appdata\\local\\programs\\python\\python35\\lib\\site-packages\\numpy\\testing\\decorators.py',
   'PYMODULE'),
  ('numpy.add_newdocs',
   'c:\\users\\kalkan\\appdata\\local\\programs\\python\\python35\\lib\\site-packages\\numpy\\add_newdocs.py',
   'PYMODULE'),
  ('numpy._import_tools',
   'c:\\users\\kalkan\\appdata\\local\\programs\\python\\python35\\lib\\site-packages\\numpy\\_import_tools.py',
   'PYMODULE'),
  ('numpy.version',
   'c:\\users\\kalkan\\appdata\\local\\programs\\python\\python35\\lib\\site-packages\\numpy\\version.py',
   'PYMODULE'),
  ('numpy.__config__',
   'c:\\users\\kalkan\\appdata\\local\\programs\\python\\python35\\lib\\site-packages\\numpy\\__config__.py',
   'PYMODULE'),
  ('numpy._globals',
   'c:\\users\\kalkan\\appdata\\local\\programs\\python\\python35\\lib\\site-packages\\numpy\\_globals.py',
   'PYMODULE')],
 [('python35.dll',
   'c:\\users\\kalkan\\appdata\\local\\programs\\python\\python35\\python35.dll',
   'BINARY'),
  ('api-ms-win-crt-stdio-l1-1-0.dll',
   'C:\\ProgramData\\Anaconda3\\api-ms-win-crt-stdio-l1-1-0.dll',
   'BINARY'),
  ('api-ms-win-crt-locale-l1-1-0.dll',
   'C:\\ProgramData\\Anaconda3\\api-ms-win-crt-locale-l1-1-0.dll',
   'BINARY'),
  ('api-ms-win-crt-math-l1-1-0.dll',
   'C:\\ProgramData\\Anaconda3\\api-ms-win-crt-math-l1-1-0.dll',
   'BINARY'),
  ('VCRUNTIME140.dll',
   'c:\\users\\kalkan\\appdata\\local\\programs\\python\\python35\\VCRUNTIME140.dll',
   'BINARY'),
  ('api-ms-win-crt-heap-l1-1-0.dll',
   'C:\\ProgramData\\Anaconda3\\api-ms-win-crt-heap-l1-1-0.dll',
   'BINARY'),
  ('api-ms-win-crt-runtime-l1-1-0.dll',
   'C:\\ProgramData\\Anaconda3\\api-ms-win-crt-runtime-l1-1-0.dll',
   'BINARY'),
  ('api-ms-win-crt-filesystem-l1-1-0.dll',
   'C:\\ProgramData\\Anaconda3\\api-ms-win-crt-filesystem-l1-1-0.dll',
   'BINARY'),
  ('api-ms-win-crt-process-l1-1-0.dll',
   'C:\\ProgramData\\Anaconda3\\api-ms-win-crt-process-l1-1-0.dll',
   'BINARY'),
  ('api-ms-win-crt-environment-l1-1-0.dll',
   'C:\\ProgramData\\Anaconda3\\api-ms-win-crt-environment-l1-1-0.dll',
   'BINARY'),
  ('api-ms-win-crt-conio-l1-1-0.dll',
   'C:\\ProgramData\\Anaconda3\\api-ms-win-crt-conio-l1-1-0.dll',
   'BINARY'),
  ('api-ms-win-crt-convert-l1-1-0.dll',
   'C:\\ProgramData\\Anaconda3\\api-ms-win-crt-convert-l1-1-0.dll',
   'BINARY'),
  ('api-ms-win-crt-time-l1-1-0.dll',
   'C:\\ProgramData\\Anaconda3\\api-ms-win-crt-time-l1-1-0.dll',
   'BINARY'),
  ('api-ms-win-crt-string-l1-1-0.dll',
   'C:\\ProgramData\\Anaconda3\\api-ms-win-crt-string-l1-1-0.dll',
   'BINARY'),
  ('ucrtbase.dll', 'C:\\ProgramData\\Anaconda3\\ucrtbase.dll', 'BINARY'),
  ('api-ms-win-core-file-l1-2-0.dll',
   'C:\\ProgramData\\Anaconda3\\api-ms-win-core-file-l1-2-0.dll',
   'BINARY'),
  ('api-ms-win-core-file-l1-1-0.dll',
   'C:\\ProgramData\\Anaconda3\\api-ms-win-core-file-l1-1-0.dll',
   'BINARY'),
  ('api-ms-win-core-memory-l1-1-0.dll',
   'C:\\ProgramData\\Anaconda3\\api-ms-win-core-memory-l1-1-0.dll',
   'BINARY'),
  ('api-ms-win-core-util-l1-1-0.dll',
   'C:\\ProgramData\\Anaconda3\\api-ms-win-core-util-l1-1-0.dll',
   'BINARY'),
  ('api-ms-win-core-heap-l1-1-0.dll',
   'C:\\ProgramData\\Anaconda3\\api-ms-win-core-heap-l1-1-0.dll',
   'BINARY'),
  ('api-ms-win-core-string-l1-1-0.dll',
   'C:\\ProgramData\\Anaconda3\\api-ms-win-core-string-l1-1-0.dll',
   'BINARY'),
  ('api-ms-win-core-synch-l1-1-0.dll',
   'C:\\ProgramData\\Anaconda3\\api-ms-win-core-synch-l1-1-0.dll',
   'BINARY'),
  ('api-ms-win-core-sysinfo-l1-1-0.dll',
   'C:\\ProgramData\\Anaconda3\\api-ms-win-core-sysinfo-l1-1-0.dll',
   'BINARY'),
  ('api-ms-win-core-debug-l1-1-0.dll',
   'C:\\ProgramData\\Anaconda3\\api-ms-win-core-debug-l1-1-0.dll',
   'BINARY'),
  ('api-ms-win-core-file-l2-1-0.dll',
   'C:\\ProgramData\\Anaconda3\\api-ms-win-core-file-l2-1-0.dll',
   'BINARY'),
  ('api-ms-win-core-console-l1-1-0.dll',
   'C:\\ProgramData\\Anaconda3\\api-ms-win-core-console-l1-1-0.dll',
   'BINARY'),
  ('api-ms-win-core-rtlsupport-l1-1-0.dll',
   'C:\\ProgramData\\Anaconda3\\api-ms-win-core-rtlsupport-l1-1-0.dll',
   'BINARY'),
  ('api-ms-win-core-processthreads-l1-1-0.dll',
   'C:\\ProgramData\\Anaconda3\\api-ms-win-core-processthreads-l1-1-0.dll',
   'BINARY'),
  ('api-ms-win-core-libraryloader-l1-1-0.dll',
   'C:\\ProgramData\\Anaconda3\\api-ms-win-core-libraryloader-l1-1-0.dll',
   'BINARY'),
  ('api-ms-win-core-localization-l1-2-0.dll',
   'C:\\ProgramData\\Anaconda3\\api-ms-win-core-localization-l1-2-0.dll',
   'BINARY'),
  ('api-ms-win-core-namedpipe-l1-1-0.dll',
   'C:\\ProgramData\\Anaconda3\\api-ms-win-core-namedpipe-l1-1-0.dll',
   'BINARY'),
  ('api-ms-win-core-processenvironment-l1-1-0.dll',
   'C:\\ProgramData\\Anaconda3\\api-ms-win-core-processenvironment-l1-1-0.dll',
   'BINARY'),
  ('api-ms-win-core-datetime-l1-1-0.dll',
   'C:\\ProgramData\\Anaconda3\\api-ms-win-core-datetime-l1-1-0.dll',
   'BINARY'),
  ('api-ms-win-core-processthreads-l1-1-1.dll',
   'C:\\ProgramData\\Anaconda3\\api-ms-win-core-processthreads-l1-1-1.dll',
   'BINARY'),
  ('api-ms-win-core-profile-l1-1-0.dll',
   'C:\\ProgramData\\Anaconda3\\api-ms-win-core-profile-l1-1-0.dll',
   'BINARY'),
  ('api-ms-win-core-synch-l1-2-0.dll',
   'C:\\ProgramData\\Anaconda3\\api-ms-win-core-synch-l1-2-0.dll',
   'BINARY'),
  ('api-ms-win-core-interlocked-l1-1-0.dll',
   'C:\\ProgramData\\Anaconda3\\api-ms-win-core-interlocked-l1-1-0.dll',
   'BINARY'),
  ('api-ms-win-core-errorhandling-l1-1-0.dll',
   'C:\\ProgramData\\Anaconda3\\api-ms-win-core-errorhandling-l1-1-0.dll',
   'BINARY'),
  ('api-ms-win-core-timezone-l1-1-0.dll',
   'C:\\ProgramData\\Anaconda3\\api-ms-win-core-timezone-l1-1-0.dll',
   'BINARY'),
  ('api-ms-win-core-handle-l1-1-0.dll',
   'C:\\ProgramData\\Anaconda3\\api-ms-win-core-handle-l1-1-0.dll',
   'BINARY'),
  ('pywintypes35.dll',
   'c:\\users\\kalkan\\appdata\\local\\programs\\python\\python35\\lib\\site-packages\\pypiwin32_system32\\pywintypes35.dll',
   'BINARY'),
  ('pythoncom35.dll',
   'c:\\users\\kalkan\\appdata\\local\\programs\\python\\python35\\lib\\site-packages\\pypiwin32_system32\\pythoncom35.dll',
   'BINARY'),
  ('win32trace',
   'c:\\users\\kalkan\\appdata\\local\\programs\\python\\python35\\lib\\site-packages\\win32\\win32trace.pyd',
   'EXTENSION'),
  ('win32ui',
   'c:\\users\\kalkan\\appdata\\local\\programs\\python\\python35\\lib\\site-packages\\Pythonwin\\win32ui.pyd',
   'EXTENSION'),
  ('_win32sysloader',
   'c:\\users\\kalkan\\appdata\\local\\programs\\python\\python35\\lib\\site-packages\\win32\\_win32sysloader.pyd',
   'EXTENSION'),
  ('win32api',
   'c:\\users\\kalkan\\appdata\\local\\programs\\python\\python35\\lib\\site-packages\\win32\\win32api.pyd',
   'EXTENSION'),
  ('win32wnet',
   'c:\\users\\kalkan\\appdata\\local\\programs\\python\\python35\\lib\\site-packages\\win32\\win32wnet.pyd',
   'EXTENSION'),
  ('win32com.shell.shell',
   'c:\\users\\kalkan\\appdata\\local\\programs\\python\\python35\\lib\\site-packages\\win32comext\\shell\\shell.pyd',
   'EXTENSION'),
  ('_multiprocessing',
   'c:\\users\\kalkan\\appdata\\local\\programs\\python\\python35\\DLLs\\_multiprocessing.pyd',
   'EXTENSION'),
  ('_ssl',
   'c:\\users\\kalkan\\appdata\\local\\programs\\python\\python35\\DLLs\\_ssl.pyd',
   'EXTENSION'),
  ('unicodedata',
   'c:\\users\\kalkan\\appdata\\local\\programs\\python\\python35\\DLLs\\unicodedata.pyd',
   'EXTENSION'),
  ('_ctypes',
   'c:\\users\\kalkan\\appdata\\local\\programs\\python\\python35\\DLLs\\_ctypes.pyd',
   'EXTENSION'),
  ('pyexpat',
   'c:\\users\\kalkan\\appdata\\local\\programs\\python\\python35\\DLLs\\pyexpat.pyd',
   'EXTENSION'),
  ('_hashlib',
   'c:\\users\\kalkan\\appdata\\local\\programs\\python\\python35\\DLLs\\_hashlib.pyd',
   'EXTENSION'),
  ('_bz2',
   'c:\\users\\kalkan\\appdata\\local\\programs\\python\\python35\\DLLs\\_bz2.pyd',
   'EXTENSION'),
  ('_lzma',
   'c:\\users\\kalkan\\appdata\\local\\programs\\python\\python35\\DLLs\\_lzma.pyd',
   'EXTENSION'),
  ('_socket',
   'c:\\users\\kalkan\\appdata\\local\\programs\\python\\python35\\DLLs\\_socket.pyd',
   'EXTENSION'),
  ('select',
   'c:\\users\\kalkan\\appdata\\local\\programs\\python\\python35\\DLLs\\select.pyd',
   'EXTENSION'),
  ('cv2.cv2',
   'c:\\users\\kalkan\\appdata\\local\\programs\\python\\python35\\lib\\site-packages\\cv2\\cv2.cp35-win_amd64.pyd',
   'EXTENSION'),
  ('scipy._lib._ccallback_c',
   'c:\\users\\kalkan\\appdata\\local\\programs\\python\\python35\\lib\\site-packages\\scipy\\_lib\\_ccallback_c.cp35-win_amd64.pyd',
   'EXTENSION'),
  ('_cffi_backend',
   'c:\\users\\kalkan\\appdata\\local\\programs\\python\\python35\\lib\\site-packages\\_cffi_backend.cp35-win_amd64.pyd',
   'EXTENSION'),
  ('numpy.core.umath',
   'c:\\users\\kalkan\\appdata\\local\\programs\\python\\python35\\lib\\site-packages\\numpy\\core\\umath.cp35-win_amd64.pyd',
   'EXTENSION'),
  ('numpy.core.multiarray',
   'c:\\users\\kalkan\\appdata\\local\\programs\\python\\python35\\lib\\site-packages\\numpy\\core\\multiarray.cp35-win_amd64.pyd',
   'EXTENSION'),
  ('win32pdh',
   'c:\\users\\kalkan\\appdata\\local\\programs\\python\\python35\\lib\\site-packages\\win32\\win32pdh.pyd',
   'EXTENSION'),
  ('numpy.random.mtrand',
   'c:\\users\\kalkan\\appdata\\local\\programs\\python\\python35\\lib\\site-packages\\numpy\\random\\mtrand.cp35-win_amd64.pyd',
   'EXTENSION'),
  ('numpy.fft.fftpack_lite',
   'c:\\users\\kalkan\\appdata\\local\\programs\\python\\python35\\lib\\site-packages\\numpy\\fft\\fftpack_lite.cp35-win_amd64.pyd',
   'EXTENSION'),
  ('numpy.linalg.lapack_lite',
   'c:\\users\\kalkan\\appdata\\local\\programs\\python\\python35\\lib\\site-packages\\numpy\\linalg\\lapack_lite.cp35-win_amd64.pyd',
   'EXTENSION'),
  ('numpy.linalg._umath_linalg',
   'c:\\users\\kalkan\\appdata\\local\\programs\\python\\python35\\lib\\site-packages\\numpy\\linalg\\_umath_linalg.cp35-win_amd64.pyd',
   'EXTENSION'),
  ('MSVCR100.dll', 'C:\\WINDOWS\\system32\\msvcr100.dll', 'BINARY'),
  ('mfc100u.dll',
   'c:\\users\\kalkan\\appdata\\local\\programs\\python\\python35\\lib\\site-packages\\Pythonwin\\mfc100u.dll',
   'BINARY'),
  ('api-ms-win-crt-utility-l1-1-0.dll',
   'C:\\ProgramData\\Anaconda3\\api-ms-win-crt-utility-l1-1-0.dll',
   'BINARY'),
  ('python3.dll',
   'c:\\users\\kalkan\\appdata\\local\\programs\\python\\python35\\python3.dll',
   'BINARY'),
  ('libopenblas_v0.2.20_mingwpy.dll',
   'c:\\users\\kalkan\\appdata\\local\\programs\\python\\python35\\lib\\site-packages\\numpy\\core\\libopenblas_v0.2.20_mingwpy.dll',
   'BINARY')],
 [],
 [],
 [('base_library.zip',
   'C:\\Users\\kalkan\\Desktop\\exe\\build\\kod\\base_library.zip',
   'DATA'),
  ('lib2to3\\PatternGrammar3.5.2.final.0.pickle',
   'c:\\users\\kalkan\\appdata\\local\\programs\\python\\python35\\lib\\lib2to3\\PatternGrammar3.5.2.final.0.pickle',
   'DATA'),
  ('lib2to3\\tests\\data\\README',
   'c:\\users\\kalkan\\appdata\\local\\programs\\python\\python35\\lib\\lib2to3\\tests\\data\\README',
   'DATA'),
  ('Include\\pyconfig.h',
   'c:\\users\\kalkan\\appdata\\local\\programs\\python\\python35\\Include\\pyconfig.h',
   'DATA'),
  ('lib2to3\\PatternGrammar.txt',
   'c:\\users\\kalkan\\appdata\\local\\programs\\python\\python35\\lib\\lib2to3\\PatternGrammar.txt',
   'DATA'),
  ('lib2to3\\Grammar3.5.2.final.0.pickle',
   'c:\\users\\kalkan\\appdata\\local\\programs\\python\\python35\\lib\\lib2to3\\Grammar3.5.2.final.0.pickle',
   'DATA'),
  ('lib2to3\\Grammar.txt',
   'c:\\users\\kalkan\\appdata\\local\\programs\\python\\python35\\lib\\lib2to3\\Grammar.txt',
   'DATA')],
 [])
